QuanNet_Alveo/.Xil/Vivado-3442-cad114/hw_ila_data_1/zip_work/waveform.vcd
$date
        2024-Jun-14 02:18:00
$end
$version
        Vivado v2020.2 (64-bit)
$end
$timescale
        1ps
$end
$scope module dut $end
$var reg 2 " SoC_i/system_ila_0/inst/net_slot_0_axi_ar_cnt [1:0] $end
$var reg 20 $ SoC_i/system_ila_0/inst/net_slot_0_axi_araddr [19:0] $end
$var reg 2 8 SoC_i/system_ila_0/inst/net_slot_0_axi_arburst [1:0] $end
$var reg 4 : SoC_i/system_ila_0/inst/net_slot_0_axi_arcache [3:0] $end
$var reg 8 > SoC_i/system_ila_0/inst/net_slot_0_axi_arlen [7:0] $end
$var reg 1 F SoC_i/system_ila_0/inst/net_slot_0_axi_arlock $end
$var reg 3 G SoC_i/system_ila_0/inst/net_slot_0_axi_arprot [2:0] $end
$var reg 4 J SoC_i/system_ila_0/inst/net_slot_0_axi_arqos [3:0] $end
$var reg 3 N SoC_i/system_ila_0/inst/net_slot_0_axi_arsize [2:0] $end
$var reg 2 Q SoC_i/system_ila_0/inst/net_slot_0_axi_aw_cnt [1:0] $end
$var reg 20 S SoC_i/system_ila_0/inst/net_slot_0_axi_awaddr [19:0] $end
$var reg 2 g SoC_i/system_ila_0/inst/net_slot_0_axi_awburst [1:0] $end
$var reg 4 i SoC_i/system_ila_0/inst/net_slot_0_axi_awcache [3:0] $end
$var reg 8 m SoC_i/system_ila_0/inst/net_slot_0_axi_awlen [7:0] $end
$var reg 1 u SoC_i/system_ila_0/inst/net_slot_0_axi_awlock $end
$var reg 3 v SoC_i/system_ila_0/inst/net_slot_0_axi_awprot [2:0] $end
$var reg 4 y SoC_i/system_ila_0/inst/net_slot_0_axi_awqos [3:0] $end
$var reg 3 } SoC_i/system_ila_0/inst/net_slot_0_axi_awsize [2:0] $end
$var reg 2 "" SoC_i/system_ila_0/inst/net_slot_0_axi_b_cnt [1:0] $end
$var reg 2 $" SoC_i/system_ila_0/inst/net_slot_0_axi_bresp [1:0] $end
$var reg 2 &" SoC_i/system_ila_0/inst/net_slot_0_axi_r_cnt [1:0] $end
$var reg 64 (" SoC_i/system_ila_0/inst/net_slot_0_axi_rdata [63:0] $end
$var reg 2 h" SoC_i/system_ila_0/inst/net_slot_0_axi_rresp [1:0] $end
$var reg 64 j" SoC_i/system_ila_0/inst/net_slot_0_axi_wdata [63:0] $end
$var reg 8 L# SoC_i/system_ila_0/inst/net_slot_0_axi_wstrb [7:0] $end
$var reg 2 T# SoC_i/system_ila_0/inst/net_slot_0_axi_aw_ctrl [1:0] $end
$var reg 1 V# SoC_i/system_ila_0/inst/net_slot_0_axi_awvalid $end
$var reg 1 W# SoC_i/system_ila_0/inst/net_slot_0_axi_awready $end
$var reg 3 X# SoC_i/system_ila_0/inst/net_slot_0_axi_w_ctrl [2:0] $end
$var reg 1 [# SoC_i/system_ila_0/inst/net_slot_0_axi_wvalid $end
$var reg 1 \# SoC_i/system_ila_0/inst/net_slot_0_axi_wready $end
$var reg 1 ]# SoC_i/system_ila_0/inst/net_slot_0_axi_wlast $end
$var reg 1 ^# SoC_i/system_ila_0/inst/net_slot_0_axi_bvalid $end
$var reg 2 _# SoC_i/system_ila_0/inst/net_slot_0_axi_b_ctrl [1:0] $end
$var reg 1 a# SoC_i/system_ila_0/inst/net_slot_0_axi_bready $end
$var reg 1 b# SoC_i/system_ila_0/inst/net_slot_0_axi_arvalid $end
$var reg 2 c# SoC_i/system_ila_0/inst/net_slot_0_axi_ar_ctrl [1:0] $end
$var reg 1 e# SoC_i/system_ila_0/inst/net_slot_0_axi_arready $end
$var reg 3 f# SoC_i/system_ila_0/inst/net_slot_0_axi_r_ctrl [2:0] $end
$var reg 1 i# SoC_i/system_ila_0/inst/net_slot_0_axi_rvalid $end
$var reg 1 j# SoC_i/system_ila_0/inst/net_slot_0_axi_rready $end
$var reg 1 k# SoC_i/system_ila_0/inst/net_slot_0_axi_rlast $end
$var reg 2 l# SoC_i/system_ila_0/inst/net_slot_1_axi_ar_cnt [1:0] $end
$var reg 64 n# SoC_i/system_ila_0/inst/net_slot_1_axi_araddr [63:0] $end
$var reg 4 P$ SoC_i/system_ila_0/inst/net_slot_1_axi_arcache [3:0] $end
$var reg 4 T$ SoC_i/system_ila_0/inst/net_slot_1_axi_arid [3:0] $end
$var reg 8 X$ SoC_i/system_ila_0/inst/net_slot_1_axi_arlen [7:0] $end
$var reg 1 `$ SoC_i/system_ila_0/inst/net_slot_1_axi_arlock $end
$var reg 3 a$ SoC_i/system_ila_0/inst/net_slot_1_axi_arprot [2:0] $end
$var reg 3 d$ SoC_i/system_ila_0/inst/net_slot_1_axi_arsize [2:0] $end
$var reg 2 g$ SoC_i/system_ila_0/inst/net_slot_1_axi_aw_cnt [1:0] $end
$var reg 64 i$ SoC_i/system_ila_0/inst/net_slot_1_axi_awaddr [63:0] $end
$var reg 4 K% SoC_i/system_ila_0/inst/net_slot_1_axi_awcache [3:0] $end
$var reg 4 O% SoC_i/system_ila_0/inst/net_slot_1_axi_awid [3:0] $end
$var reg 8 S% SoC_i/system_ila_0/inst/net_slot_1_axi_awlen [7:0] $end
$var reg 1 [% SoC_i/system_ila_0/inst/net_slot_1_axi_awlock $end
$var reg 3 \% SoC_i/system_ila_0/inst/net_slot_1_axi_awprot [2:0] $end
$var reg 3 _% SoC_i/system_ila_0/inst/net_slot_1_axi_awsize [2:0] $end
$var reg 2 b% SoC_i/system_ila_0/inst/net_slot_1_axi_b_cnt [1:0] $end
$var reg 4 d% SoC_i/system_ila_0/inst/net_slot_1_axi_bid [3:0] $end
$var reg 2 h% SoC_i/system_ila_0/inst/net_slot_1_axi_bresp [1:0] $end
$var reg 2 j% SoC_i/system_ila_0/inst/net_slot_1_axi_r_cnt [1:0] $end
$var reg 512 l% SoC_i/system_ila_0/inst/net_slot_1_axi_rdata [511:0] $end
$var reg 4 8+ SoC_i/system_ila_0/inst/net_slot_1_axi_rid [3:0] $end
$var reg 2 <+ SoC_i/system_ila_0/inst/net_slot_1_axi_rresp [1:0] $end
$var reg 512 >+ SoC_i/system_ila_0/inst/net_slot_1_axi_wdata [511:0] $end
$var reg 64 h0 SoC_i/system_ila_0/inst/net_slot_1_axi_wstrb [63:0] $end
$var reg 1 J1 SoC_i/system_ila_0/inst/net_slot_1_axi_awvalid $end
$var reg 2 K1 SoC_i/system_ila_0/inst/net_slot_1_axi_aw_ctrl [1:0] $end
$var reg 1 M1 SoC_i/system_ila_0/inst/net_slot_1_axi_awready $end
$var reg 3 N1 SoC_i/system_ila_0/inst/net_slot_1_axi_w_ctrl [2:0] $end
$var reg 1 Q1 SoC_i/system_ila_0/inst/net_slot_1_axi_wvalid $end
$var reg 1 R1 SoC_i/system_ila_0/inst/net_slot_1_axi_wready $end
$var reg 1 S1 SoC_i/system_ila_0/inst/net_slot_1_axi_wlast $end
$var reg 1 T1 SoC_i/system_ila_0/inst/net_slot_1_axi_bvalid $end
$var reg 2 U1 SoC_i/system_ila_0/inst/net_slot_1_axi_b_ctrl [1:0] $end
$var reg 1 W1 SoC_i/system_ila_0/inst/net_slot_1_axi_bready $end
$var reg 2 X1 SoC_i/system_ila_0/inst/net_slot_1_axi_ar_ctrl [1:0] $end
$var reg 1 Z1 SoC_i/system_ila_0/inst/net_slot_1_axi_arvalid $end
$var reg 1 [1 SoC_i/system_ila_0/inst/net_slot_1_axi_arready $end
$var reg 3 \1 SoC_i/system_ila_0/inst/net_slot_1_axi_r_ctrl [2:0] $end
$var reg 1 _1 SoC_i/system_ila_0/inst/net_slot_1_axi_rvalid $end
$var reg 1 `1 SoC_i/system_ila_0/inst/net_slot_1_axi_rready $end
$var reg 1 a1 SoC_i/system_ila_0/inst/net_slot_1_axi_rlast $end
$var reg 3 b1 AR_Channel__i1_s0___axi_smc_M00_AXI_ [2:0] $end
$var reg 3 e1 AR_Channel__i1_s1___xdma_0_M_AXI_ [2:0] $end
$var reg 3 h1 AW_Channel__i1_s0___axi_smc_M00_AXI_ [2:0] $end
$var reg 3 k1 AW_Channel__i1_s1___xdma_0_M_AXI_ [2:0] $end
$var reg 3 n1 B_Channel__i1_s0___axi_smc_M00_AXI_ [2:0] $end
$var reg 3 q1 B_Channel__i1_s1___xdma_0_M_AXI_ [2:0] $end
$var reg 3 t1 Interface__i1_s0___axi_smc_M00_AXI_ [2:0] $end
$var reg 3 w1 Interface__i1_s1___xdma_0_M_AXI_ [2:0] $end
$var reg 3 z1 R_Channel__i1_s0___axi_smc_M00_AXI_ [2:0] $end
$var reg 3 }1 R_Channel__i1_s1___xdma_0_M_AXI_ [2:0] $end
$var reg 3 "2 W_Channel__i1_s0___axi_smc_M00_AXI_ [2:0] $end
$var reg 3 %2 W_Channel__i1_s1___xdma_0_M_AXI_ [2:0] $end
$var reg 1 (2 _TRIGGER $end
$var reg 1 )2 _WINDOW $end
$var reg 1 *2 _GAP $end
$upscope $end
$enddefinitions $end
#0
$dumpvars
b0 "
b1100000100011100000 $
b1 8
b11 :
b11100011 >
0F
b0 G
b0 J
b11 N
b1 Q
b1100000100000010000 S
b1 g
b11 i
b101 m
0u
b0 v
b0 y
b11 }
b1 ""
b0 $"
b0 &"
b0 ("
b0 h"
b11111111111111111111111100000001 j"
b1 L#
b0 T#
0V#
0W#
b1 X#
1[#
0\#
0]#
0^#
b10 _#
1a#
0b#
b0 c#
0e#
b10 f#
0i#
1j#
0k#
b0 l#
b1100000100011100000 n#
b11 P$
b0 T$
b11100 X$
0`$
b0 a$
b110 d$
b1 g$
b1100000100000010000 i$
b11 K%
b0 O%
b1000 S%
0[%
b0 \%
b110 _%
b1 b%
b0 d%
b0 h%
b0 j%
b0 l%
b0 8+
b0 <+
b1100101001111110101000101100111001101100100100001011110001100100100010001011010001111010101000001100110010101110110011001111101 >+
b1111111111111111111111111111111111111111111111111111111111111111 h0
0J1
b10 K1
1M1
b0 N1
0Q1
0R1
0S1
0T1
b10 U1
1W1
b10 X1
0Z1
1[1
b100 \1
0_1
0`1
1a1
b11 b1
b11 e1
b11 h1
b11 k1
b0 n1
b0 q1
b0 t1
b0 w1
b100 z1
b100 }1
b0 "2
b100 %2
1(2
1)2
0*2
$end
#1
b11 X#
1\#
b1 t1
b1 "2
#2
b0 j"
b0 L#
#6
b111 X#
1]#
b111 "2
#7
b0 X#
0[#
0\#
0]#
1^#
b11 _#
b10 n1
b0 "2
#8
b0 Q
b0 ""
0^#
b10 _#
b0 n1
b0 t1
#9
1T1
b11 U1
b10 q1
b1 w1
#10
b0 g$
b0 b%
0T1
b0 U1
0W1
b0 q1
b0 w1
