.Xil/Vivado-2761-cad108.naist.jp/hw_ila_data_1/zip_work/waveform.vcd
$date
        2022-Nov-10 10:10:29
$end
$version
        Vivado v2020.2 (64-bit)
$end
$timescale
        1ps
$end
$scope module dut $end
$var reg 2 " SoC_i/system_ila_0/inst/net_slot_0_axi_ar_cnt [1:0] $end
$var reg 20 $ SoC_i/system_ila_0/inst/net_slot_0_axi_araddr [19:0] $end
$var reg 2 8 SoC_i/system_ila_0/inst/net_slot_0_axi_arburst [1:0] $end
$var reg 4 : SoC_i/system_ila_0/inst/net_slot_0_axi_arcache [3:0] $end
$var reg 8 > SoC_i/system_ila_0/inst/net_slot_0_axi_arlen [7:0] $end
$var reg 1 F SoC_i/system_ila_0/inst/net_slot_0_axi_arlock $end
$var reg 3 G SoC_i/system_ila_0/inst/net_slot_0_axi_arprot [2:0] $end
$var reg 4 J SoC_i/system_ila_0/inst/net_slot_0_axi_arqos [3:0] $end
$var reg 3 N SoC_i/system_ila_0/inst/net_slot_0_axi_arsize [2:0] $end
$var reg 2 Q SoC_i/system_ila_0/inst/net_slot_0_axi_aw_cnt [1:0] $end
$var reg 20 S SoC_i/system_ila_0/inst/net_slot_0_axi_awaddr [19:0] $end
$var reg 2 g SoC_i/system_ila_0/inst/net_slot_0_axi_awburst [1:0] $end
$var reg 4 i SoC_i/system_ila_0/inst/net_slot_0_axi_awcache [3:0] $end
$var reg 8 m SoC_i/system_ila_0/inst/net_slot_0_axi_awlen [7:0] $end
$var reg 1 u SoC_i/system_ila_0/inst/net_slot_0_axi_awlock $end
$var reg 3 v SoC_i/system_ila_0/inst/net_slot_0_axi_awprot [2:0] $end
$var reg 4 y SoC_i/system_ila_0/inst/net_slot_0_axi_awqos [3:0] $end
$var reg 3 } SoC_i/system_ila_0/inst/net_slot_0_axi_awsize [2:0] $end
$var reg 2 "" SoC_i/system_ila_0/inst/net_slot_0_axi_b_cnt [1:0] $end
$var reg 2 $" SoC_i/system_ila_0/inst/net_slot_0_axi_bresp [1:0] $end
$var reg 2 &" SoC_i/system_ila_0/inst/net_slot_0_axi_r_cnt [1:0] $end
$var reg 64 (" SoC_i/system_ila_0/inst/net_slot_0_axi_rdata [63:0] $end
$var reg 2 h" SoC_i/system_ila_0/inst/net_slot_0_axi_rresp [1:0] $end
$var reg 64 j" SoC_i/system_ila_0/inst/net_slot_0_axi_wdata [63:0] $end
$var reg 8 L# SoC_i/system_ila_0/inst/net_slot_0_axi_wstrb [7:0] $end
$var reg 2 T# SoC_i/system_ila_0/inst/net_slot_0_axi_aw_ctrl [1:0] $end
$var reg 1 V# SoC_i/system_ila_0/inst/net_slot_0_axi_awvalid $end
$var reg 1 W# SoC_i/system_ila_0/inst/net_slot_0_axi_awready $end
$var reg 3 X# SoC_i/system_ila_0/inst/net_slot_0_axi_w_ctrl [2:0] $end
$var reg 1 [# SoC_i/system_ila_0/inst/net_slot_0_axi_wvalid $end
$var reg 1 \# SoC_i/system_ila_0/inst/net_slot_0_axi_wready $end
$var reg 1 ]# SoC_i/system_ila_0/inst/net_slot_0_axi_wlast $end
$var reg 1 ^# SoC_i/system_ila_0/inst/net_slot_0_axi_bvalid $end
$var reg 2 _# SoC_i/system_ila_0/inst/net_slot_0_axi_b_ctrl [1:0] $end
$var reg 1 a# SoC_i/system_ila_0/inst/net_slot_0_axi_bready $end
$var reg 1 b# SoC_i/system_ila_0/inst/net_slot_0_axi_arvalid $end
$var reg 2 c# SoC_i/system_ila_0/inst/net_slot_0_axi_ar_ctrl [1:0] $end
$var reg 1 e# SoC_i/system_ila_0/inst/net_slot_0_axi_arready $end
$var reg 3 f# SoC_i/system_ila_0/inst/net_slot_0_axi_r_ctrl [2:0] $end
$var reg 1 i# SoC_i/system_ila_0/inst/net_slot_0_axi_rvalid $end
$var reg 1 j# SoC_i/system_ila_0/inst/net_slot_0_axi_rready $end
$var reg 1 k# SoC_i/system_ila_0/inst/net_slot_0_axi_rlast $end
$var reg 2 l# SoC_i/system_ila_0/inst/net_slot_1_axi_ar_cnt [1:0] $end
$var reg 64 n# SoC_i/system_ila_0/inst/net_slot_1_axi_araddr [63:0] $end
$var reg 4 P$ SoC_i/system_ila_0/inst/net_slot_1_axi_arcache [3:0] $end
$var reg 4 T$ SoC_i/system_ila_0/inst/net_slot_1_axi_arid [3:0] $end
$var reg 8 X$ SoC_i/system_ila_0/inst/net_slot_1_axi_arlen [7:0] $end
$var reg 1 `$ SoC_i/system_ila_0/inst/net_slot_1_axi_arlock $end
$var reg 3 a$ SoC_i/system_ila_0/inst/net_slot_1_axi_arprot [2:0] $end
$var reg 3 d$ SoC_i/system_ila_0/inst/net_slot_1_axi_arsize [2:0] $end
$var reg 2 g$ SoC_i/system_ila_0/inst/net_slot_1_axi_aw_cnt [1:0] $end
$var reg 64 i$ SoC_i/system_ila_0/inst/net_slot_1_axi_awaddr [63:0] $end
$var reg 4 K% SoC_i/system_ila_0/inst/net_slot_1_axi_awcache [3:0] $end
$var reg 4 O% SoC_i/system_ila_0/inst/net_slot_1_axi_awid [3:0] $end
$var reg 8 S% SoC_i/system_ila_0/inst/net_slot_1_axi_awlen [7:0] $end
$var reg 1 [% SoC_i/system_ila_0/inst/net_slot_1_axi_awlock $end
$var reg 3 \% SoC_i/system_ila_0/inst/net_slot_1_axi_awprot [2:0] $end
$var reg 3 _% SoC_i/system_ila_0/inst/net_slot_1_axi_awsize [2:0] $end
$var reg 2 b% SoC_i/system_ila_0/inst/net_slot_1_axi_b_cnt [1:0] $end
$var reg 4 d% SoC_i/system_ila_0/inst/net_slot_1_axi_bid [3:0] $end
$var reg 2 h% SoC_i/system_ila_0/inst/net_slot_1_axi_bresp [1:0] $end
$var reg 2 j% SoC_i/system_ila_0/inst/net_slot_1_axi_r_cnt [1:0] $end
$var reg 512 l% SoC_i/system_ila_0/inst/net_slot_1_axi_rdata [511:0] $end
$var reg 4 8+ SoC_i/system_ila_0/inst/net_slot_1_axi_rid [3:0] $end
$var reg 2 <+ SoC_i/system_ila_0/inst/net_slot_1_axi_rresp [1:0] $end
$var reg 512 >+ SoC_i/system_ila_0/inst/net_slot_1_axi_wdata [511:0] $end
$var reg 64 h0 SoC_i/system_ila_0/inst/net_slot_1_axi_wstrb [63:0] $end
$var reg 1 J1 SoC_i/system_ila_0/inst/net_slot_1_axi_awvalid $end
$var reg 2 K1 SoC_i/system_ila_0/inst/net_slot_1_axi_aw_ctrl [1:0] $end
$var reg 1 M1 SoC_i/system_ila_0/inst/net_slot_1_axi_awready $end
$var reg 3 N1 SoC_i/system_ila_0/inst/net_slot_1_axi_w_ctrl [2:0] $end
$var reg 1 Q1 SoC_i/system_ila_0/inst/net_slot_1_axi_wvalid $end
$var reg 1 R1 SoC_i/system_ila_0/inst/net_slot_1_axi_wready $end
$var reg 1 S1 SoC_i/system_ila_0/inst/net_slot_1_axi_wlast $end
$var reg 1 T1 SoC_i/system_ila_0/inst/net_slot_1_axi_bvalid $end
$var reg 2 U1 SoC_i/system_ila_0/inst/net_slot_1_axi_b_ctrl [1:0] $end
$var reg 1 W1 SoC_i/system_ila_0/inst/net_slot_1_axi_bready $end
$var reg 2 X1 SoC_i/system_ila_0/inst/net_slot_1_axi_ar_ctrl [1:0] $end
$var reg 1 Z1 SoC_i/system_ila_0/inst/net_slot_1_axi_arvalid $end
$var reg 1 [1 SoC_i/system_ila_0/inst/net_slot_1_axi_arready $end
$var reg 3 \1 SoC_i/system_ila_0/inst/net_slot_1_axi_r_ctrl [2:0] $end
$var reg 1 _1 SoC_i/system_ila_0/inst/net_slot_1_axi_rvalid $end
$var reg 1 `1 SoC_i/system_ila_0/inst/net_slot_1_axi_rready $end
$var reg 1 a1 SoC_i/system_ila_0/inst/net_slot_1_axi_rlast $end
$var reg 3 b1 AR_Channel__i1_s0___axi_smc_M00_AXI_ [2:0] $end
$var reg 3 e1 AR_Channel__i1_s1___xdma_0_M_AXI_ [2:0] $end
$var reg 3 h1 AW_Channel__i1_s0___axi_smc_M00_AXI_ [2:0] $end
$var reg 3 k1 AW_Channel__i1_s1___xdma_0_M_AXI_ [2:0] $end
$var reg 3 n1 B_Channel__i1_s0___axi_smc_M00_AXI_ [2:0] $end
$var reg 3 q1 B_Channel__i1_s1___xdma_0_M_AXI_ [2:0] $end
$var reg 3 t1 Interface__i1_s0___axi_smc_M00_AXI_ [2:0] $end
$var reg 3 w1 Interface__i1_s1___xdma_0_M_AXI_ [2:0] $end
$var reg 3 z1 R_Channel__i1_s0___axi_smc_M00_AXI_ [2:0] $end
$var reg 3 }1 R_Channel__i1_s1___xdma_0_M_AXI_ [2:0] $end
$var reg 3 "2 W_Channel__i1_s0___axi_smc_M00_AXI_ [2:0] $end
$var reg 3 %2 W_Channel__i1_s1___xdma_0_M_AXI_ [2:0] $end
$var reg 16 (2 ila_1___slot_0___axi_smc_M00_AXI___Write_Transactions_0 [15:0] $end
$var reg 16 82 ila_1___slot_0___axi_smc_M00_AXI___Write_Transactions_1 [15:0] $end
$var reg 16 H2 ila_1___slot_1___xdma_0_M_AXI___Write_Transactions_0 [15:0] $end
$var reg 1 X2 _TRIGGER $end
$var reg 1 Y2 _WINDOW $end
$var reg 1 Z2 _GAP $end
$upscope $end
$enddefinitions $end
#0
$dumpvars
b0 "
b1100000100000000000 $
b1 8
b11 :
b11111111 >
0F
b0 G
b0 J
b11 N
b0 Q
b1011111111101000000 S
b1 g
b11 i
b10111 m
0u
b0 v
b0 y
b11 }
b0 ""
b0 $"
b0 &"
b0 ("
b0 h"
b11001011010000101000011111000000110110000101101111110010010011 j"
b11111111 L#
b0 T#
0V#
0W#
b0 X#
0[#
0\#
0]#
0^#
b10 _#
1a#
0b#
b0 c#
0e#
b10 f#
0i#
1j#
0k#
b0 l#
b1100000000000000000 n#
b11 P$
b0 T$
b111111 X$
0`$
b0 a$
b110 d$
b0 g$
b1011111111101000000 i$
b11 K%
b0 O%
b111 S%
0[%
b0 \%
b110 _%
b0 b%
b0 d%
b0 h%
b0 j%
b0 l%
b0 8+
b0 <+
b111001101101011001111110010011110111111100001000111001100000100101110100101000001111001001111011010011001011000110011100101111111110010011000111001001010101111001110110000101000010011100111010101110100110011001010100101111011110100101101000100001100111100001110111001001011100011101011000001100001010111010011110001001101010010000101011000000100001010011001000001100100011000010010011110011010110011010101001011000100100101111010100010110001101001100000110100111111100000111001010010110110011010101001100010100 >+
b1111111111111111111111111111111111111111111111111111111111111111 h0
0J1
b10 K1
1M1
b0 N1
0Q1
0R1
0S1
0T1
b0 U1
0W1
b10 X1
0Z1
1[1
b0 \1
0_1
0`1
0a1
b11 b1
b11 e1
b0 h1
b0 k1
b0 n1
b0 q1
b0 t1
b0 w1
b100 z1
b100 }1
b0 "2
b0 %2
b0 (2
b0 82
b0 H2
0X2
1Y2
0Z2
$end
#1014
b11 S%
#1015
b0 i$
1J1
b11 K1
b10 k1
b1 w1
#1016
b1 g$
b1 b%
0J1
b10 K1
b0 k1
b0 w1
#1017
b111 S%
b10 N1
1R1
b10 U1
1W1
#1018
b0 S
b11111 m
b1 T#
1V#
b10 h1
b1 t1
b1 (2
#1019
b11 T#
1W#
#1020
b1 Q
b1 ""
b0 T#
0V#
0W#
b0 h1
b0 t1
#1022
b1111000010010111000001001100000110000010011111100110000001101110110110010100000011110111010011101000001011001111111111111101000101100101111011010011001101010111100001000100001001001000101001011111100010010010011000110001000001101011010101100100001101100010000110100100110111110011101001100000101000100000101100100011000101010101001100010101101000110101000001000111011011010110010111010100101011100010111100000101110011010001101000100100001101110101101001100101001110101111101100010101100100110110010010110001011 >+
b11 N1
1Q1
b1 w1
b1 %2
#1023
b10100001010111000011011011101111010101110001101000110100110001100000001111000101101100100011000111010001100110001000011100101001000111000100000000100000011011010010101000101001000111001011101101100110000000111100011110011000100101101101010001110011100100010101101000111011111001110000011100100111010001000010001000000100011010001101101001100101111110101000000001100111011010111111110010011001100110111011000110001010100101100010010000110011100011110100110101110010010101110011011101110001110010010011001101100101 >+
#1024
b1101001100101001110101111101100010101100100110110010010110001011 j"
b1 X#
1[#
b11101101111010101011010100111111111100011010111111100010100010010011000111100100010111101011100111001011000000111011111111101100010000101101001101000110001000001001011111101011111111000011100010011110100011011011101000101001010001011011011010011101110111100001111011001111101000001101101100100101001110100100000010110101111100011111100010001100110001010101010101111001101100110100110101011111000000011101110000010110011001110110010011111111001110110111001110101010101111001111010101101010100100010001011100111010 >+
1X2
#1025
b11 X#
1\#
b11100001001101100000010101100101110010011101000000111100101101010110101000011010110100011010110011011110000101101000011101000110001110001010000010111101110000000000110001001010001000101101110001001000011000011111111001111010000010100001111000101010101000 >+
b11111111111111111111111111111111 h0
b111 N1
1S1
b1 t1
b1 "2
b111 %2
#1026
b1010010101110001011110000010111001101000110100010010000110111010 j"
b1010111001111010101101111100110111000101001100101000101100001100100000100010011011000010001010010001000011001010000111001100101000111110010111111010100000011100000011000101101000001001100110011001100110000111100001000000001110000110000100101100001010010011111111010100001110010010000101010100100010001010110000110111001001110000010010111010000100110100100000011001011010111100001011011010100111010111011010010001101001101000111001011110000010100000011100101001101110011101100001011011100000101010001001001100 >+
b1111111111111111111111111111111111111111111111111111111111111111 h0
b0 N1
0Q1
0R1
0S1
b0 w1
b0 %2
#1027
b1010101010011000101011010001101010000010001110110110101100101110 j"
b1000 S%
#1028
b110100100110111110011101001100000101000100000101100100011000 j"
b11100000 i$
1J1
b11 K1
b10 k1
b1 w1
#1029
b1111110001001001001100011000100000110101101010110010000110110001 j"
b10 g$
b10 b%
0J1
b10 K1
b0 k1
b0 w1
#1030
b1011001011110110100110011010101111000010001000010010010001010010 j"
b111 S%
b1111111111111111111111111111111100000000000000000000000000000000 h0
b10 N1
1R1
#1031
b11100000 S
b1000011 m
b110110010100000011110111010011101000001011001111111111111101000 j"
b1 T#
1V#
b10 h1
b1 82
#1032
b111100001001011100000100110000011000001001111110011000000110111 j"
#1033
b100110101110010010101110011011101110001110010010011001101100101 j"
#1034
b1001100110011011101100011000101010010110001001000011001110001111 j"
b100100010110110111011101111110001010101110101001101111011100110001010001111010101101000100010110100101001001010111010010011101000101001110011101000011101000001000101110101101111100110011100011110110110100101001000010000111011001111010111101011110100111010000000000000000000000000000000000000000000000000000000000000000000000000000000000000000000000000000000000000000000000000000000000000000000000000000000000000000000000000000000000000000000000000000000000000000000000000000000000000000000000000000000000000000 >+
b11 N1
1Q1
b1 w1
b1 %2
#1035
b110100011011010011001011111101010000000011001110110101111111100 j"
b1001111110000000001111110010110011100110010001110100011111100111011000001111011010010010010011011001110100011101010011111100010000100100001101100011000010001100011001000011010000001101110000101111000001100001101001001111110011111001000011011111110010101110011000111100101011100110101110010001110011110000110010100110100011100011100000111110110001010111011101011101000001101001001100101111110110010011011100010001010000011001101101001111100110010010001011111010110011001010001001011101101001001111011010110101101 >+
b1111111111111111111111111111111111111111111111111111111111111111 h0
#1036
b101101000111011111001110000011100100111010001000010001000000100 j"
b10010011001110001001110010110111111110110000110111110111101110010011100001101010101110000000101101001000101101100011110111001101101100110011110100101110110111111001100000011110001110011110000000000111011010000001111011110111011101100111010001110010000010010110000111010011101010010000001110001110010000011100000100000101001000111111100101010010010101011001100100001100011101011011000010111111100101000110011010101011011000100000011111010111110001110011100110110000110101100111111010000001000001010111111011110010 >+
#1037
b110011000000011110001111001100010010110110101000111001110010001 j"
b1000 S%
b10010000000100110001011110001100000011001100000001101101000111110010101000110000011000111010010000011001011011100011000011100001010011011101101110011011100101000011011001100011001000111011100010011111101010110111100010110001111110011101010010110111011000001110100011010010100000100110111001110011100100010000010100011001010101000101001111110111100010110000011011100000010000101101000001100011000001001001110000000111110110110111001010010010100111011100010011101101100001110010011011110010010100100010011000011001 >+
#1038
b1110001000000001000000110110100101010001010010001110010111011 j"
b1011100000 i$
b11011000010010001100111001000111000101100000101001001000010001010111101101010001000011000111101001101100000100100110111110101011011111000001011000111111100101000110000101100001100100011001111111111011111001010000101001000111000011100001101000010010001100011010011001100110011011100001101000001111100011110110100101101001110000011000101011100110000110100001101011110101000101011000110011000010000100010010001100001100110000001001010001000011001100100010111011011110011100110001101010110001010011001101110011000101 >+
1J1
b11 K1
b10 k1
b1 H2
#1039
b1111000101101100100011000111010001100110001000011100101001 j"
b11 g$
b11 b%
b11101011100011011010010010101100111000100000000010110000100000000001011001010000011101111111010101011001101010101101011110000001001000011000010100101100101100000101001000101011011000110000001111011100111001011000010111101101000110001110111101000000100111101111010001010000110011010011100001110001111110001001101110010100000001011001010101111010111110010011100100110011000011000010001110100110011001111101110111011011010110110110001000010011111110010111100001011011100011001100011101110110100010111100001110110101 >+
0J1
b10 K1
b0 k1
#1040
b1010000101011100001101101110111101010111000110100011010011000110 j"
b111 S%
b10011100000010011101011111010011111101110001010011001110110111011101111110101110100001010001100000100111110000101101101100100001100011010010111010111110111000010100001010011000010100010101001110001110011111100001001111010111101111010011100111110100110001010111000010101110100111101011010110100100000110011011110011011111110110011010001111110110000000101101110000111000010001011111000001110000100001000111001110111100000000001010010011001100000000001110101011010100111001010001001011001100110010110100101111110101 >+
#1041
b111001110101010101111001111010101101010100100010001011100111010 j"
b1111100001011100010100111000010100110011000001110110100000101110011000101101011001101000000100110100001001001000010100111101011110101010100011010011000101011110111100101100100110111000001010101010101001110010100110110010001010111111000010000001110100001101000000111011101101000101100001111011100010110010101100011101011101111101111100001101110110110001110101100010011011110110011001111101101011101111111101011101111111001111001100110001100111110010100010010100010111000010110001101100111010001001101100101000011 >+
#1042
b101111100000001110111000001011001100111011001001111111100111011 j"
b1110110011010110101110110001000110111011011010011111111010100100100011101101111000000010101101000100010100101011010010001011010000010010001010111110111000111110111001110001000110100110111100000000010010111001010110110011000101100000100111101000011101000000 >+
b11111111111111111111111111111111 h0
b111 N1
1S1
b111 %2
#1043
b1111000111111000100011001100010101010101011110011011001101001101 j"
b1001111110000000001111110010110011100110010001110100011111100111011000001111011010010010010011011001110100011101010011111100010000100100001101100011000010001100011001000011010000001101110000101111000001100001101001001111110011111001000011011111110010101110011000111100101011100110101110010001110011110000110010100110100011100011100000111110110001010111011101011101000001101001001100101111110110010011011100010001010000011001101101001111100110010010001011111010110011001010001001011101101001001111011010110101101 >+
b1111111111111111111111111111111111111111111111111111111111111111 h0
b10 N1
0Q1
0S1
b0 w1
b0 %2
#1044
b1111011001111101000001101101100100101001110100100000010110101 j"
b10111111011001111100000010001011000100011011000110101100001111001111000011000010010110000000011000110010100011000001001100001111011101011100111000100010101001101011111101001000011101110101000000101101100101100111100000110000010101100001110001000011110111010000000000000000000000000000000000000000000000000000000000000000000000000000000000000000000000000000000000000000000000000000000000000000000000000000000000000000000000000000000000000000000000000000000000000000000000000000000000000000000000000000000000000000 >+
b1111111111111111111111111111111100000000000000000000000000000000 h0
b11 N1
1Q1
b1 w1
b1 %2
#1045
b1001111010001101101110100010100101000101101101101001110111011110 j"
b10010110110110110101000110000100010101100011001010000111001000110110101001001100101111101101101011101101001111110101000001010111111000000011100011101011011110110110100000001000010100001110110000011111001011000101010101100100001010000010010110001101011100010000101110101011001101111110111000100110100101000010011110111110110100001100110001001101000100110100000000000101011010000000010110110100111010010011111101011001001110010110010010000010111001101110000001110011111010100111010111101101110001101101001110110000 >+
b1111111111111111111111111111111111111111111111111111111111111111 h0
#1046
b100001011010011010001100010000010010111111010111111110000111000 j"
b10101101000010101111100110011010001000101101000010010011011010001010100110010000101000111110011111101101011101110000111111000000010010101000101101110100011000110101010001111001001011101000001001100011010011011010100011110101001101111111111111001010011011111001000001000111101000011001001010011010111101000100110101111101111100110101101111111010000100100000000111000101101011001110101011110101100111110111000010100000010000010000011010000010111110000111100000100010000011110010110010101001100010110110110000100101 >+
#1047
b11000111100100010111101011100111001011000000111011111111101100 j"
b1000 S%
b101111111010011010100101000111100011111111111000001111110010000100010011111001010010011111000000101110011110010110011001000000000100101010100110001000110000110110010011111001111101011100001101100010010001100000100110110111011110111111111110010011001110011111110110011000001000011100010011110011111101110111110110100111000011010011101000101001100010100010101011110010101011001011101000110011111110110000101001101001110011100111101101100110110101001000101010110011010001011001101000000011001101001001011001010101 >+
#1048
b1110110111101010101101010011111111110001101011111110001010001001 j"
b10011100000 i$
b1001000010010000100100110010110100001111100001011010111111010000110011010101100000010011101001101001011011110100011111001011000110010001110000001110001000110001010100100101000011000110101011111100010100001111011110101001110001011100101011010011111101001011001000000100011101011011100001111011001000011001100001101100000001110000101001011011111001101100000010100111111100101100000001001101010111110010011101111111000101000110001100010101010110110000110000101111011001110100010100101110110110000111000010001010010 >+
1J1
b11 K1
b10 k1
#1049
b1001000011000011111111001111010000010100001111000101010101000 j"
b0 g$
b0 b%
b11101010010011100110110000111001011010101010001110101110100101111001001010011010000110000111010000011010000100101100011100101111010111010101111011000011011000111011100001011101001100010101100111100000111110001001001000100001101100111101010100110100100011000111110100000001110011001100011100101101101010101110101111111010001010101001001101000000001011101111000011010011100000110110010100100111000111100110100001101100110011100111000011110000011100011000111000111111000111110011010101000011011110100000010011 >+
0J1
b10 K1
b0 k1
#1050
b1000111000101000001011110111000000000011000100101000100010110111 j"
b111 S%
b10010001100100000101111000111010111000001001111100111011100111101101001101110101111101001011111110100011001011110101011001001110100110111011111000111100110010100000010101011100001110110000101100100011101010000000000011001011001100100011011010010001000001000001111000110000101101000110000010001001010000010111110011010110001010110111111101110010111001010000010000001000100100001011010001110100001010001101011010000101010010100101100010110111001101111101111101100000011110011001010100110100000101111010100101101100 >+
#1051
b101101010000110101101000110101100110111100001011010000111010001 j"
b10101100000101000101101001001010011011000100001111101001011001011001010101111001111110001010111100111100011111111010101110110101010011001000110110111101100010010010010110111101001000111000100011001010000010101000000111000100111001111011100100001011110100111100100001001100000010010000100100100100110010000100110001011111000011110111110101001110101111010010000101101011001111000010111100100110110101100011110101101101111001110011101011100101011110010110001111010101011011001010100000010111001010010001010000001101 >+
#1052
b11100001001101100000010101100101110010011101000000111100101101 j"
b10111010100111111101010011110100000110000111011011011001000011110000100001001010110000111111010110101101111001011001100000000101011111110000110011011010111001101011001111100000111100001011111011110111001001000110001110100110101110001100110111111100111110 >+
b11111111111111111111111111111111 h0
b111 N1
1S1
b111 %2
#1053
b0 j"
b0 L#
b10010110110110110101000110000100010101100011001010000111001000110110101001001100101111101101101011101101001111110101000001010111111000000011100011101011011110110110100000001000010100001110110000011111001011000101010101100100001010000010010110001101011100010000101110101011001101111110111000100110100101000010011110111110110100001100110001001101000100110100000000000101011010000000010110110100111010010011111101011001001110010110010010000010111001101110000001110011111010100111010111101101110001101101001110110000 >+
b1111111111111111111111111111111111111111111111111111111111111111 h0
b10 N1
0Q1
0S1
b0 w1
b0 %2
#1054
b110110011101111100100000111100100111010101011000101000001011111011111110101100111100101111110011100110001011110000111110100111011110111111100000010011100110011101111011111110111100000110010100000001011111001010111111010101110101111010000101110010111111000000000000000000000000000000000000000000000000000000000000000000000000000000000000000000000000000000000000000000000000000000000000000000000000000000000000000000000000000000000000000000000000000000000000000000000000000000000000000000000000000000000000000000 >+
b1111111111111111111111111111111100000000000000000000000000000000 h0
b11 N1
1Q1
b1 w1
b1 %2
#1055
b11000001111000111101010011010101001101111111111111001110111001100100101100000100110101111011100100011010010000000001110111100100101011011011100001111100001111111111001000000110010101011110111011100111111010001001100011111000101001111000010111100010101100010001101110101001100011110110110011010101010010101100101101011010011110101110110100111111001100101111000001110001110111110101000011010100110100010010110010001010110001000110101010000010100111010011100101100100000011011011010101101011110110000010100000101001 >+
b1111111111111111111111111111111111111111111111111111111111111111 h0
#1056
b111 X#
1]#
b1010010011010011010010010111110011000100001111001001111111011100110101111100000111010110101111011000111000000100110011110111011000011001001001000100011000000001010000101010100111101000010110111000100100001010011000111011011100101110001011110100001110010010101000011001110001100011010011100000101111011100011000100011101100010000100111101010001010110000110000001011000101111011110010111011111001111111100100100111010001010010100110111100110101101110110010101011111010011011110011010011111110111000100101100101010 >+
b111 "2
#1057
b1111011011010010100100001000011101100111101011110101111010011101 j"
b11111111 L#
b1 X#
0\#
0]#
1^#
b11 _#
b1010101001110010101100111001011000000011000101100111010000110011101110101111111111000010101110011000111011011110110100010110010001101001110000111100111011110010110011011010010010101100101001011010111000110010100001000010001101100110111001001100101011100100010000101011101111110010111000010111011001101011110011000101111001010100001101000111000111000001010110111100010000110000000111101101000000110011010001100111001000011101001001011000101101110100110111111001111100000011011011000110101111110000011011000100011 >+
b10 n1
b0 "2
#1058
b0 Q
b0 ""
b11 T#
1W#
0^#
b10 _#
b110110100101111000001010101100100010011110011001001110101000110000111100000110001101110101101010010110010110010111101101101011001101001001111110110111001000110000100001101100110100111010111101111110100101111111100100111010101111100101000010110011001101011101001010011100010110100011111110111001110000000111101010100001101100000001000010111111100000111111011101000010111111100011000111100111100110000010010110111001110100111100101000101001010001110000000101001011111001011010100010111110100100010101101011100110 >+
b0 n1
b0 (2
#1059
b1 Q
b1011100000 S
b1 ""
b1 T#
0W#
b11 X#
1\#
b11 b%
b101011100010111110111111110010000001100010001110001010100111011010010101111001000101111100011011011100110111101000101110101110110110100110010001010011001001101101010111110111000110010011110110000111001011011101001101001011011000111001011110110000100010000100100010101001110011100001101001111000111110010011110010010000101110010001011011101001010001010001111110001101110010111101111111001100101101111000101111101110111011010101001010000110110110101000010001000111100001101101111011010001100010101101111100010110 >+
1T1
b11 U1
b0 h1
b10 q1
b1 "2
#1060
b1010011100111010000111010000010001011101011011111001100111000 j"
b0 b%
b11100101111011011111111110100110000011011001010001000011111101001111101000001110011110001000100101001111010000110110100001110101011010100001000100000111111110100011000011100000000101011111011010000001101110101001001001101011011100000001110101011100111010000110011101010011100011110001001010110101010100110100111111100010101100101111111010001111100100010000101100100011000010101000100111101110110011001000001001010110100100011101110100001110111100101001110110001010100000010010110111011110010111011100101111001101 >+
0T1
b0 U1
0W1
b0 q1
#1061
b1010001111010101101000100010110100101001001010111010010011101 j"
b1011001100000100111011100110000010111011000101011101000111011101011001100101101001011000100011001010101111100100111010010110010011001110111101110110011110101000111001110011111001011011111011101011010100010010010001111111100001111101000101111010000111011100110001100000101110000000001110000101011001110011000111111101111001110110101010001100001010010001100100110110111011010101101110011110111111101111001110111010110110001101010100001101111101100010001101011111000111100110110001000001000110001111001001110100100 >+
b10 U1
1W1
#1062
b10010001011011011101110111111000101010111010100110111101110011 j"
b1010101100111101011000001011111011011100110101001110011000101111101111001011010010111011000100001100100010100000110010001100111110110000110001100100001001011011110111011001001110111001011100101110101101001001001010001010111100011000011110101011011010101011 >+
b11111111111111111111111111111111 h0
b111 N1
1S1
b111 %2
#1063
b1011111010110011001010001001011101101001001111011010110101101 j"
b11000001111000111101010011010101001101111111111111001110111001100100101100000100110101111011100100011010010000000001110111100100101011011011100001111100001111111111001000000110010101011110111011100111111010001001100011111000101001111000010111100010101100010001101110101001100011110110110011010101010010101100101101011010011110101110110100111111001100101111000001110001110111110101000011010100110100010010110010001010110001000110101010000010100111010011100101100100000011011011010101101011110110000010100000101001 >+
b1111111111111111111111111111111111111111111111111111111111111111 h0
b0 N1
0Q1
0R1
0S1
b0 w1
b0 %2
#1064
b111111011001001101110001000101000001100110110100111110011001001 j"
#1065
b111000111000001111101100010101110111010111010000011010010011001 j"
#1066
b11000111100101011100110101110010001110011110000110010100110100 j"
#1067
b111100000110000110100100111111001111100100001101111111001010111 j"
#1068
b1001000011011000110000100011000110010000110100000011011100001 j"
#1069
b1011000001111011010010010010011011001110100011101010011111100010 j"
#1070
b100111111000000000111111001011001110011001000111010001111110011 j"
#1071
b11100110110000110101100111111010000001000001010111111011110010 j"
#1072
b1011111110010100011001101010101101100010000001111101011111000111 j"
#1073
b10001111111001010100100101010110011001000011000111010110110000 j"
#1074
b110000111010011101010010000001110001110010000011100000100000101 j"
#1075
b11101101000000111101111011101110110011101000111001000001001 j"
#1076
b1011001100111101001011101101111110011000000111100011100111100000 j"
#1077
b11100001101010101110000000101101001000101101100011110111001101 j"
b1000 S%
#1078
b1001001100111000100111001011011111111011000011011111011110111001 j"
b11011100000 i$
1J1
b11 K1
b10 k1
b1 w1
#1079
b1100010011101101100001110010011011110010010100100010011000011001 j"
b1 g$
b1 b%
0J1
b10 K1
b0 k1
b0 w1
#1080
b110001100000100100111000000011111011011011100101001001010011101 j"
b111 S%
b1111111111111111111111111111111100000000000000000000000000000000 h0
b10 N1
1R1
#1081
b101010001010011111101111000101100000110111000000100001011010000 j"
#1082
b1110100011010010100000100110111001110011100100010000010100011001 j"
#1083
b1001111110101011011110001011000111111001110101001011011101100000 j"
#1084
b100110111011011100110111001010000110110011000110010001110111000 j"
b10011011000111001001100111000110001111001100111010000101100010000100110011001010101000100111011110010111100011001000001100100101100001110000011011001010100000100010100101111011000001010110100011111000100111010001000010110111101100000000101001001111000000010000000000000000000000000000000000000000000000000000000000000000000000000000000000000000000000000000000000000000000000000000000000000000000000000000000000000000000000000000000000000000000000000000000000000000000000000000000000000000000000000000000000000000 >+
b11 N1
1Q1
b1 w1
b1 %2
#1085
b10101000110000011000111010010000011001011011100011000011100001 j"
b10011011111101111001101100100101000010011001011011110101100001101011101111110101111101110010001000011101100100001001100101001001011100110011010010110001111001010111011101101101100110000010100100010111110010011110011100001100011000111111011000000101101000011011010100101100010100011111110110101111000000111110100000111100011000110101111100110000111110110100001100011100000111101010110010101111001110010010101010101100000011001000010001100000000100000010011110011001010110101011011101101011010101011010101100001001 >+
b1111111111111111111111111111111111111111111111111111111111111111 h0
