QuanNet_Alveo/.Xil/Vivado-1890442-cad113/hw_ila_data_1/zip_work/waveform.vcd
$date
        2025-Aug-18 02:08:58
$end
$version
        Vivado v2020.2 (64-bit)
$end
$timescale
        1ps
$end
$scope module dut $end
$var reg 2 " SoC_i/system_ila_0/inst/net_slot_0_axi_ar_cnt [1:0] $end
$var reg 20 $ SoC_i/system_ila_0/inst/net_slot_0_axi_araddr [19:0] $end
$var reg 2 8 SoC_i/system_ila_0/inst/net_slot_0_axi_arburst [1:0] $end
$var reg 4 : SoC_i/system_ila_0/inst/net_slot_0_axi_arcache [3:0] $end
$var reg 8 > SoC_i/system_ila_0/inst/net_slot_0_axi_arlen [7:0] $end
$var reg 1 F SoC_i/system_ila_0/inst/net_slot_0_axi_arlock $end
$var reg 3 G SoC_i/system_ila_0/inst/net_slot_0_axi_arprot [2:0] $end
$var reg 4 J SoC_i/system_ila_0/inst/net_slot_0_axi_arqos [3:0] $end
$var reg 3 N SoC_i/system_ila_0/inst/net_slot_0_axi_arsize [2:0] $end
$var reg 2 Q SoC_i/system_ila_0/inst/net_slot_0_axi_aw_cnt [1:0] $end
$var reg 20 S SoC_i/system_ila_0/inst/net_slot_0_axi_awaddr [19:0] $end
$var reg 2 g SoC_i/system_ila_0/inst/net_slot_0_axi_awburst [1:0] $end
$var reg 4 i SoC_i/system_ila_0/inst/net_slot_0_axi_awcache [3:0] $end
$var reg 8 m SoC_i/system_ila_0/inst/net_slot_0_axi_awlen [7:0] $end
$var reg 1 u SoC_i/system_ila_0/inst/net_slot_0_axi_awlock $end
$var reg 3 v SoC_i/system_ila_0/inst/net_slot_0_axi_awprot [2:0] $end
$var reg 4 y SoC_i/system_ila_0/inst/net_slot_0_axi_awqos [3:0] $end
$var reg 3 } SoC_i/system_ila_0/inst/net_slot_0_axi_awsize [2:0] $end
$var reg 2 "" SoC_i/system_ila_0/inst/net_slot_0_axi_b_cnt [1:0] $end
$var reg 2 $" SoC_i/system_ila_0/inst/net_slot_0_axi_bresp [1:0] $end
$var reg 2 &" SoC_i/system_ila_0/inst/net_slot_0_axi_r_cnt [1:0] $end
$var reg 64 (" SoC_i/system_ila_0/inst/net_slot_0_axi_rdata [63:0] $end
$var reg 2 h" SoC_i/system_ila_0/inst/net_slot_0_axi_rresp [1:0] $end
$var reg 64 j" SoC_i/system_ila_0/inst/net_slot_0_axi_wdata [63:0] $end
$var reg 8 L# SoC_i/system_ila_0/inst/net_slot_0_axi_wstrb [7:0] $end
$var reg 2 T# SoC_i/system_ila_0/inst/net_slot_0_axi_aw_ctrl [1:0] $end
$var reg 1 V# SoC_i/system_ila_0/inst/net_slot_0_axi_awvalid $end
$var reg 1 W# SoC_i/system_ila_0/inst/net_slot_0_axi_awready $end
$var reg 3 X# SoC_i/system_ila_0/inst/net_slot_0_axi_w_ctrl [2:0] $end
$var reg 1 [# SoC_i/system_ila_0/inst/net_slot_0_axi_wvalid $end
$var reg 1 \# SoC_i/system_ila_0/inst/net_slot_0_axi_wready $end
$var reg 1 ]# SoC_i/system_ila_0/inst/net_slot_0_axi_wlast $end
$var reg 1 ^# SoC_i/system_ila_0/inst/net_slot_0_axi_bvalid $end
$var reg 2 _# SoC_i/system_ila_0/inst/net_slot_0_axi_b_ctrl [1:0] $end
$var reg 1 a# SoC_i/system_ila_0/inst/net_slot_0_axi_bready $end
$var reg 1 b# SoC_i/system_ila_0/inst/net_slot_0_axi_arvalid $end
$var reg 2 c# SoC_i/system_ila_0/inst/net_slot_0_axi_ar_ctrl [1:0] $end
$var reg 1 e# SoC_i/system_ila_0/inst/net_slot_0_axi_arready $end
$var reg 3 f# SoC_i/system_ila_0/inst/net_slot_0_axi_r_ctrl [2:0] $end
$var reg 1 i# SoC_i/system_ila_0/inst/net_slot_0_axi_rvalid $end
$var reg 1 j# SoC_i/system_ila_0/inst/net_slot_0_axi_rready $end
$var reg 1 k# SoC_i/system_ila_0/inst/net_slot_0_axi_rlast $end
$var reg 2 l# SoC_i/system_ila_0/inst/net_slot_1_axi_ar_cnt [1:0] $end
$var reg 64 n# SoC_i/system_ila_0/inst/net_slot_1_axi_araddr [63:0] $end
$var reg 4 P$ SoC_i/system_ila_0/inst/net_slot_1_axi_arcache [3:0] $end
$var reg 4 T$ SoC_i/system_ila_0/inst/net_slot_1_axi_arid [3:0] $end
$var reg 8 X$ SoC_i/system_ila_0/inst/net_slot_1_axi_arlen [7:0] $end
$var reg 1 `$ SoC_i/system_ila_0/inst/net_slot_1_axi_arlock $end
$var reg 3 a$ SoC_i/system_ila_0/inst/net_slot_1_axi_arprot [2:0] $end
$var reg 3 d$ SoC_i/system_ila_0/inst/net_slot_1_axi_arsize [2:0] $end
$var reg 2 g$ SoC_i/system_ila_0/inst/net_slot_1_axi_aw_cnt [1:0] $end
$var reg 64 i$ SoC_i/system_ila_0/inst/net_slot_1_axi_awaddr [63:0] $end
$var reg 4 K% SoC_i/system_ila_0/inst/net_slot_1_axi_awcache [3:0] $end
$var reg 4 O% SoC_i/system_ila_0/inst/net_slot_1_axi_awid [3:0] $end
$var reg 8 S% SoC_i/system_ila_0/inst/net_slot_1_axi_awlen [7:0] $end
$var reg 1 [% SoC_i/system_ila_0/inst/net_slot_1_axi_awlock $end
$var reg 3 \% SoC_i/system_ila_0/inst/net_slot_1_axi_awprot [2:0] $end
$var reg 3 _% SoC_i/system_ila_0/inst/net_slot_1_axi_awsize [2:0] $end
$var reg 2 b% SoC_i/system_ila_0/inst/net_slot_1_axi_b_cnt [1:0] $end
$var reg 4 d% SoC_i/system_ila_0/inst/net_slot_1_axi_bid [3:0] $end
$var reg 2 h% SoC_i/system_ila_0/inst/net_slot_1_axi_bresp [1:0] $end
$var reg 2 j% SoC_i/system_ila_0/inst/net_slot_1_axi_r_cnt [1:0] $end
$var reg 512 l% SoC_i/system_ila_0/inst/net_slot_1_axi_rdata [511:0] $end
$var reg 4 8+ SoC_i/system_ila_0/inst/net_slot_1_axi_rid [3:0] $end
$var reg 2 <+ SoC_i/system_ila_0/inst/net_slot_1_axi_rresp [1:0] $end
$var reg 512 >+ SoC_i/system_ila_0/inst/net_slot_1_axi_wdata [511:0] $end
$var reg 64 h0 SoC_i/system_ila_0/inst/net_slot_1_axi_wstrb [63:0] $end
$var reg 1 J1 SoC_i/system_ila_0/inst/net_slot_1_axi_awvalid $end
$var reg 2 K1 SoC_i/system_ila_0/inst/net_slot_1_axi_aw_ctrl [1:0] $end
$var reg 1 M1 SoC_i/system_ila_0/inst/net_slot_1_axi_awready $end
$var reg 3 N1 SoC_i/system_ila_0/inst/net_slot_1_axi_w_ctrl [2:0] $end
$var reg 1 Q1 SoC_i/system_ila_0/inst/net_slot_1_axi_wvalid $end
$var reg 1 R1 SoC_i/system_ila_0/inst/net_slot_1_axi_wready $end
$var reg 1 S1 SoC_i/system_ila_0/inst/net_slot_1_axi_wlast $end
$var reg 1 T1 SoC_i/system_ila_0/inst/net_slot_1_axi_bvalid $end
$var reg 2 U1 SoC_i/system_ila_0/inst/net_slot_1_axi_b_ctrl [1:0] $end
$var reg 1 W1 SoC_i/system_ila_0/inst/net_slot_1_axi_bready $end
$var reg 2 X1 SoC_i/system_ila_0/inst/net_slot_1_axi_ar_ctrl [1:0] $end
$var reg 1 Z1 SoC_i/system_ila_0/inst/net_slot_1_axi_arvalid $end
$var reg 1 [1 SoC_i/system_ila_0/inst/net_slot_1_axi_arready $end
$var reg 3 \1 SoC_i/system_ila_0/inst/net_slot_1_axi_r_ctrl [2:0] $end
$var reg 1 _1 SoC_i/system_ila_0/inst/net_slot_1_axi_rvalid $end
$var reg 1 `1 SoC_i/system_ila_0/inst/net_slot_1_axi_rready $end
$var reg 1 a1 SoC_i/system_ila_0/inst/net_slot_1_axi_rlast $end
$var reg 3 b1 AR_Channel__i1_s0___axi_smc_M00_AXI_ [2:0] $end
$var reg 3 e1 AR_Channel__i1_s1___xdma_0_M_AXI_ [2:0] $end
$var reg 3 h1 AW_Channel__i1_s0___axi_smc_M00_AXI_ [2:0] $end
$var reg 3 k1 AW_Channel__i1_s1___xdma_0_M_AXI_ [2:0] $end
$var reg 3 n1 B_Channel__i1_s0___axi_smc_M00_AXI_ [2:0] $end
$var reg 3 q1 B_Channel__i1_s1___xdma_0_M_AXI_ [2:0] $end
$var reg 3 t1 Interface__i1_s0___axi_smc_M00_AXI_ [2:0] $end
$var reg 3 w1 Interface__i1_s1___xdma_0_M_AXI_ [2:0] $end
$var reg 3 z1 R_Channel__i1_s0___axi_smc_M00_AXI_ [2:0] $end
$var reg 3 }1 R_Channel__i1_s1___xdma_0_M_AXI_ [2:0] $end
$var reg 3 "2 W_Channel__i1_s0___axi_smc_M00_AXI_ [2:0] $end
$var reg 3 %2 W_Channel__i1_s1___xdma_0_M_AXI_ [2:0] $end
$var reg 16 (2 ila_1___slot_0___axi_smc_M00_AXI___Write_Transactions_0 [15:0] $end
$var reg 16 82 ila_1___slot_1___xdma_0_M_AXI___Write_Transactions_0 [15:0] $end
$var reg 1 H2 _TRIGGER $end
$var reg 1 I2 _WINDOW $end
$var reg 1 J2 _GAP $end
$upscope $end
$enddefinitions $end
#0
$dumpvars
b0 "
b1100000100010000000 $
b1 8
b11 :
b11101111 >
0F
b0 G
b0 J
b11 N
b1 Q
b0 S
b1 g
b11 i
b11111 m
0u
b0 v
b0 y
b11 }
b1 ""
b0 $"
b0 &"
b0 ("
b0 h"
b1011100010110000110010001011000010101000110010001011000010101 j"
b11111111 L#
b0 T#
0V#
0W#
b1 X#
1[#
0\#
0]#
0^#
b10 _#
1a#
0b#
b0 c#
0e#
b10 f#
0i#
1j#
0k#
b0 l#
b1100000100010000000 n#
b11 P$
b0 T$
b11101 X$
0`$
b0 a$
b110 d$
b1 g$
b0 i$
b11 K%
b0 O%
b1000 S%
0[%
b0 \%
b110 _%
b1 b%
b0 d%
b0 h%
b0 j%
b0 l%
b0 8+
b0 <+
b110110010010000011110001001010010111000101000001000011010101010100100100110001010000000011010100110001010000000011010100110100010000110011100000110011010000100011011101010011011000100101011101100000011011110110010001010001010111110101010100110110010000100011101000110101001111100011100000110011001111000011011000110111010000000011101000111111010001100100000100110010001110000011001100101110001101010011000000110001001110100011010000111011010000010100000000101011001010110010101100100111001000110010011000011110 >+
b1111111111111111111111111111111111111111111111111111111111111111 h0
0J1
b10 K1
1M1
b11 N1
1Q1
1R1
0S1
0T1
b10 U1
1W1
b10 X1
0Z1
1[1
b100 \1
0_1
0`1
1a1
b11 b1
b11 e1
b0 h1
b0 k1
b0 n1
b0 q1
b0 t1
b1 w1
b100 z1
b100 }1
b0 "2
b1 %2
b0 (2
b0 82
1H2
1I2
0J2
$end
#1
b11 X#
1\#
b1001001010001110101110001001110010010100101111101010010010011010110000101010011010011010110000001010010001001110011011100101010 >+
b1111111111111111 h0
b111 N1
1S1
b1 t1
b1 "2
b111 %2
#2
b1101100011111000111000001101100011100000110010001100000011010 j"
b1100101010100100101111101100010010100110101110001100010010100110101110001100010010100110101110001100010010100110101110001100010010100100101110001100101010100000101111101100110010100000101111101101000010100100110000101100110010100100110000101100110010100100110000101100110010100100110000101100111010100110110001001100101010101000110001001100101010101000110001001100111010101100110010001101010010110100110011001111100011011000111100010010111100010101001011111001011110000011100111011011011110110111110100111011000 >+
b1111111111111111111111111111111111111111111111111111111111111111 h0
b0 N1
0Q1
0R1
0S1
b0 w1
b0 %2
#3
b10010100011101000111010010001000011101000111000010000000011100 j"
b11010000 i$
1J1
b11 K1
b10 k1
b1 w1
#4
b1010100010101001000100001101000011010001001010001110100011101 j"
b10 g$
b10 b%
0J1
b10 K1
b0 k1
b0 w1
#5
b101100010100000011000000110000010111000011110000111100011101 j"
b1111111111111111111111111111111111111111111111110000000000000000 h0
b10 N1
1R1
#6
b11010000 S
b1000101 m
b1001100001011000010110001001100001011000010110001001100001011 j"
b1 T#
1V#
b10 h1
b1 (2
#7
b1000000011001000101110000111000010001000101000000110000001100 j"
#8
b10001001000001001110010100000100101001000111100010011000011101 j"
#9
b1101000011001000110110001111000011011001000000001111100011100 j"
b1010000001110010101001101000100001111100101101001001011001111100101100001001001001110110101011001000111001101100101011101000111001101110101101101001010001101110101110001001011001101110101101101001010001101110101101101001010001101100101011101000111001110000101010101000111001110100101011001000111001110010101001001000101001110010101000101000010001111100101011001000111010000100101011100000000000000000000000000000000000000000000000000000000000000000000000000000000000000000000000000000000000000000000000000000000 >+
b11 N1
1Q1
b1 w1
b1 %2
#10
b1011100011001000110000001011100011001000101010001011100011001 j"
b1111111011010100101011010000010011011100101100010000000011011010100101001110010010111110100101101110000010111100100100101101011010110110100100001100111010101110100100001100100010101100100010001011110010011110100010101011010010011100100001001010110010010100100001001010111010010100100011001011010010011100100010101011100010011110100010101011100010011110101001001101101011000000100010101100000010100110011010001001111010000100011010101010000010000100011011001010001010001000100000001011010010011010100011001011101 >+
b1111111111111111111111111111111111111111111111111111111111111111 h0
#11
b1100100011000000101110001100100011000000101110001100100011000 j"
b11010111111001001101111010101101110001011011100001111100101000111001000001101110101001111001000101101101101001101001000001110001101000101000110101001000011101010110000101011011100010000111010001100000100011010111100101011111100011000111100001010100100000010110110101001000011101010110000101001000011101010110000001010000011111100110100101001001011110110110011001101011100111111000101001101001100111011000100001011001100011010111100001011000100011010111100001010111100010010111010001001011011111010110100001001110 >+
#12
b1100100011000000110100001100000010111000110010001100000010111 j"
b11111110111111111111100111111111111111111111101011111111111111111111100011111110111111111111100011111110111111111111100011111110111111111111100011111110111111111111100011111110111111111111100011111110111111111111101011111111111111111111101011111111111111111111101011111111111111111111101011111111111111111111100011111110111111111111100011111110111111111111011111111111111111111111011111111101111111111111011111111011111111111111100111111000111111101111011011110100111110101111011111110011111100011111100011110011 >+
#13
b1011100011010000111000001100000011011000111000001100000011011 j"
b1011010000 i$
b10011001100100011001011010100101100111011101011011011110110101101111110111111101111111011111010111110101111100111111100011110101111110001111111011110110111111011111111111110111111111101111111111111001111111111111111111110110111111111111111111110101111111111111111111110101111111111111111111110110111111111111111111111000111111011111111111111010111111101111111011111101111111111101110111100100111001011111101111110011111110001111111111111001111111111111111111110110111111001111111111110110111111001111111111111000 >+
1J1
b11 K1
b10 k1
b1 82
#14
b1100000011001000101010001100000011001000101010001100000011011 j"
b11 g$
b11 b%
b1100110101110011010000101100101101111011010010001110000110010111011001101111101110110111100001101110000110011101011011001010111101100001001100010000000110100001011110101011101101000011001001001010011100011110111111101010011100001010111011110100111110101101100100001110010100111011001000001111101101001011001101001110111100111001001010001101000100011101000011001100011100011111000011001101010100101101000110101110000100110111001010010001101101011111010101010011100101101111011010010010001101010011010010010000101 >+
0J1
b10 K1
b0 k1
#15
b1011100010100000101100001100100011000000110010001100100010101 j"
b1111011011000001000110001111100010110001000010001110100010100010111111101101101010010000111100001100100010001000111010101011101010000010111001001011010010010000111010101011110010101000111111001100111010111111000011001110000010010000111001101011101010001100111100001100000010010000111110001100100010011101000010101101111010111011001011110000000011010111010101010010011011010101011000010010110011001011010110010010100011101101100000010100111011111101100100110110010011110111100110110110101011100101100100010101111 >+
#16
b1101100011100000101010001001000010011000011110000110000001101 j"
b1011010010010010100101001110111011001010101001110001010011101100100110110000110011100100101001010001111011110100101000010001110011110110100011110001011011101110100110010010101100000000101101010101000100100110110100110110010101000000111010010110101101001000101111010011010100010100100110001111111011100000100101001110010011001000100001101100110010101100100000101011111010100010011111101011111010100010101000001110101011001100110011110001101011111110110101010010100100001110101101010000110011110000101111110001010 >+
#17
b100000000101011001010110010101100100111001000110010011000011110 j"
b1000000010101110100101001000111010111110101000001000100011000000101000100111100010110000100100100110111010100100100010000111000 >+
b1111111111111111 h0
b111 N1
1S1
b111 %2
#18
b10111000110101001100000011000100111010001101000011101101000001 j"
b1111111011010100101011010000010011011100101100010000000011011010100101001110010010111110100101101110000010111100100100101101011010110110100100001100111010101110100100001100100010101100100010001011110010011110100010101011010010011100100001001010110010010100100001001010111010010100100011001011010010011100100010101011100010011110100010101011100010011110101001001101101011000000100010101100000010100110011010001001111010000100011010101010000010000100011011001010001010001000100000001011010010011010100011001011101 >+
b1111111111111111111111111111111111111111111111111111111111111111 h0
b10 N1
0Q1
0S1
b0 w1
b0 %2
#19
b100000000111010001111110100011001000001001100100011100000110011 j"
b111000001110110011000000110001001101110010110100110100001111000011001000110100001111110011010000110110010000010011011000111000010000110011100000111101010010100011111100111110010100000100010000111010010011100100001000110110010010100011111000111000010001110011110000110010010001000011100000110010010001100011101000110100010011100100000100101111010001100011100100110100010011010100000000000000000000000000000000000000000000000000000000000000000000000000000000000000000000000000000000000000000000000000000000000000 >+
b1111111111111111111111111111111111111111111111110000000000000000 h0
b11 N1
1Q1
b1 w1
b1 %2
#20
b11101000110101001111100011100000110011001111000011011000110111 j"
b101111001100110010110000101000001011000010010100100010001001000001111100011110001100010010110100101010001111110011100100110100001111000011100100110010001101100011010100101111001110010011100000110010001110110011110100110110001110100100000100111010001111100100100101000000010010000101010001001001010001100101001101001000001111100100111001000001001111110100111101000010010010000101011001001001001111100100110000111111001101000100001000110101001110100100001100110111001111100100001000110110001110110011111000110100 >+
b1111111111111111111111111111111111111111111111111111111111111111 h0
#21
b110000001101111011001000101000101011111010101010011011001000010 j"
b111100001010110010110001001000001101110100101001101011010110010101001101110111011001000100011001101010010110000101001001111101011010010101011110001001011101100101100110001010011110010110100010010101100001010101110010000000011100010100000101011100010011110011011001001101010000000011100001001011010000100011101001001000010000010010111000111011001101010001111100101100001001100010011000101110001010010010110100110010001100000011001100110101001100110011101100111011001110010011111000111010001101100011100100110010 >+
#22
b100001100111000001100110100001000110111010100110110001001010111 j"
b110101001110000010110100111101010000000011011001000010010001010011101100111101010000110011100100101000001011100010010000100101001010110010000100101001001100010010011100101101001101000010110100101011001100100010101100101011001101010010111100101011001101100011000100110010010000100011101100110100010001100011111100111101010011110100100000110010010001110011111000110110010011000100001001010100011010100110000001100010011110000110111001010010011010100101110000110111010011110100000000110001010010110011101000100001 >+
#23
b100100100110001010000000011010100110001010000000011010100110100 j"
b10011010000 i$
b10101001010110001110000011101001100100010001100100100001011110010001100100101001011100010001000100100001010110001111100100001001010000001110000011110001001010001100100011011001001010001100100011011001001100001011100011000001001100001011100011000001001010001011100011000001000100001011100010111000111010001010100010101000111100001011000010110001001010001110100011101001101000010110000101100001101100010111000101110001100010010110000101011001100010010111000101001001011100011000000100111001011110011001000101000 >+
1J1
b11 K1
b10 k1
#24
b11011001001000001111000100101001011100010100000100001101010101 j"
b0 g$
b0 b%
b1001000010001000011101001010011010100000011110101010101010100101000000010010110100100110011111101000100010000110011000100100011001001100010110000011100001000010010011000010110000110110010000100010001000101100001111100001111000101000001111000001110000100110001111100001111000101000010000000010000000101010001111100001111000101000001111100001111000101000001111000001110000100110001111000001111000100110001111000010010000101000010000000010001000100100010000000010001000100100010000000010001000100100010001100010100 >+
0J1
b10 K1
b0 k1
#25
b110000101010011010011010110000001010010001001110011011100101010 j"
b100101001100010010100100100111001100110010101100101001001101110010111100101000001110010011000000100010001101010010110000100011001101100010110100100100001101110010111000100110001110010011000000110001010001000011101100110010010001010011110100011001001011010010100000011110001100100010111100101110010000100011111100101101010000010011111000100101001110100011011100011111001100110011000000101110010000100011111101000000010101000101000100111000010011100100101100101100010001000100000100011110001110010011010100101101 >+
#26
b100100101000111010111000100111001001010010111110101001001001101 j"
b1001100010010110101010101010010010010010101010101010010001111110101011001010011010010000110001101011110011011111000101010000110011011001000011110000011011000110111111001111010010001100101111001011010001100000011101000111001001011100011001100110011001010000011000000101101001001100010111000101011001001100010111000101011001001010010110100101010001010000011000100101101001011100011101100110100001010010011011100101111001000110011000100101001001001010011000100101001001001100011001000101010001001010011000100101001 >+
#27
b0 j"
b0 L#
b1001000010010000010000100101000001010000011101101000101010001000101001101011101010111000100111001011001010101010100011101010010 >+
b1111111111111111 h0
b111 N1
1S1
b111 %2
#28
b101111001100110010110000101000001011000010010100100010001001000001111100011110001100010010110100101010001111110011100100110100001111000011100100110010001101100011010100101111001110010011100000110010001110110011110100110110001110100100000100111010001111100100100101000000010010000101010001001001010001100101001101001000001111100100111001000001001111110100111101000010010010000101011001001001001111100100110000111111001101000100001000110101001110100100001100110111001111100100001000110110001110110011111000110100 >+
b1111111111111111111111111111111111111111111111111111111111111111 h0
b10 N1
0Q1
0S1
b0 w1
b0 %2
#29
b11011000111000001110100011000000110010001101100010110000101110001101100010110000101110001110000010111000110000001110100011000000110010001111100011010000110110001111000011001000110100001111000011001000110100010000000011011000111000010000000100000001000000010001100100011001000110010011000101011001010110011101000111111001111110100111101010100010101000101010101011010010110100100001100000000000000000000000000000000000000000000000000000000000000000000000000000000000000000000000000000000000000000000000000000000 >+
b1111111111111111111111111111111111111111111111110000000000000000 h0
b11 N1
1Q1
b1 w1
b1 %2
#30
b10110000100100001010100010011000100100001010000010011000100100001010000010100000100110001010100010110000101010001011100010110000101010001011100010110000101010001011100010110000101010001011100010110000101010001011100010110000101010001011100010110000101010001011100010110000101010001011100010110000101010001011100010110000101010001011100011001000110000001101000011011000110100001110000011100000110110001110100011101000111000001111000011110000110110001111000100010000111010001111000100010000111010001111000100000 >+
b1111111111111111111111111111111111111111111111111111111111111111 h0
#31
b100000000101100001111100100000000110100010001100100100000111010010011000100111000111010010011000101000001000000010100100101010001001100010110100101110001010000010111100110000001010010010110100101111001010110010111100110001001011000010111000110000001010000010101000101101001010000010100000101010001001010010010000100110001000000001111100100001001000000001101100011110001000010001100000011100001000110001101000011101001000110001101100011101001001010001110100011111001001100001111000100000001000110001110000100000 >+
#32
b111 X#
1]#
b101011001011010010011100101011001011010010100000101100001011100010010100101100001011010010010100101011001011010010011100101110001011110010100000101111001100000010011100101110001011110010011000101101001011100010010100101100001011010010010100101100001011010010001000101001001010100010000100101000001010010010000000100111001010000010000100101000001010010010000100101000001010010010000000100111001010000001110100100101001001100001101000100011001001000001100100100010001000110001100000100001001000100001011000011111 >+
b111 "2
#33
b11100101010001010000100011111001010110010001110100001001010111 j"
b11111111 L#
b1 X#
0\#
0]#
1^#
b11 _#
b11011010000 i$
b10011000100100001010000010011000100100001010000010011000100100001010000010011000100100001010000010011000100100001010000010100000100110001010100011000000101110001100100011011000110100001110000011101000111000001111000011110000111010001111100100001001000000010001000100001001000000010001000100000000111110010000100100000000111110010000100100010001000010010001100100001001000000010001000100000000111110010000100100000000111110010000100011101000111110010000100100110001010000010101000100111001010110010110100100111 >+
1J1
b11 K1
b10 k1
b10 n1
b0 "2
#34
b0 Q
b0 ""
b11 T#
1W#
0^#
b10 _#
b1 g$
b1 b%
b100000001001000001110000100100000110010000111000010111000110100000111000010110000101110000111000010001000101000000110000001100000100110000101100001011000100110000101100001011000100110000101100001011000101000000110000001100000101110000111100001111000111100001010100010101001000100001100100011001001001100001110000011100001001100001110000011100001001000001110000011100001000100001101100011011001000010001110000011011001000010001101100011010000111100001100000011000000111100001100000011000000111100001100000011000 >+
0J1
b10 K1
b0 k1
b0 n1
#35
b1 Q
b1011010000 S
b1 ""
b1 T#
0W#
b11 X#
1\#
b11000000110010100110001001001010010100010110000101001001010100001100100010110000101110001101000010111000110000001101000010110000110010001100100010101000110000001100100010101000110000001101000010110000110010001101100010111000110100010000000011100000111110010000100100000001000010010001100100010001001000001001000010001000100110001111000011101000111110000111100001110000100000001010100010100000101100001100000010111000110010001010100010111000110010001101000011001000110110001111000011011001000000001110100011010 >+
1T1
b11 U1
b0 h1
b10 q1
b1 "2
#36
b101010101000111001110100101011001000111001110010101001001000101 j"
b0 g$
b0 b%
b1010010011000000101001100111011010010010011110100101010001110010010111000101010001101110010110000111101010010000011110101001011010101100100101101010011010111000101010001110011011110110111010001100001011010010110001001001000010100000100100100111111010001100100000000111111010001000100000100111101010000000100000100110111001110100011101100110010001101000011010100100001001000110010010000100111001010100010101100100110001010010010101000100011001000110010010100100000000110110010000100100010000111000001111100011011 >+
0T1
b0 U1
0W1
b0 q1
#37
b100101000110111010110110100101000110110010101110100011100111000 j"
b1011000010010010101100001001011001111110100111001000001001101000100001100110110001111010100101100111110010000110101000101000100 >+
b1111111111111111 h0
b111 N1
1S1
b10 U1
1W1
b111 %2
#38
b11011101011011010010100011011101011100010010110011011101011011 j"
b10110000100100001010100010011000100100001010000010011000100100001010000010100000100110001010100010110000101010001011100010110000101010001011100010110000101010001011100010110000101010001011100010110000101010001011100010110000101010001011100010110000101010001011100010110000101010001011100010110000101010001011100010110000101010001011100011001000110000001101000011011000110100001110000011100000110110001110100011101000111000001111000011110000110110001111000100010000111010001111000100010000111010001111000100000 >+
b1111111111111111111111111111111111111111111111111111111111111111 h0
b10 N1
0Q1
0S1
b0 w1
b0 %2
#39
b101100001001001001110110101011001000111001101100101011101000111 j"
b111101001111100100110101000000001111110100111101000001001110110100110000111111001110000100110100111111001100110101000001000000001100010101000101000001001011110101000001000000001011100100110100111101001011000100101100111011001011000100100100111010001100000100100100111010001110000100110100111111010000010101001001000101010010010101101101001101010111100110111101100010010101000110010100000000000000000000000000000000000000000000000000000000000000000000000000000000000000000000000000000000000000000000000000000000 >+
b1111111111111111111111111111111111111111111111110000000000000000 h0
b11 N1
1Q1
b1 w1
b1 %2
#40
b101000000111001010100110100010000111110010110100100101100111110 j"
b1111000011000110100011101110001010111010100001001101000010101010100011101101011010110000100100001101010010110100100100101101000010110000100001001011110010011110100011001100000010100010101000001101001010110100101000001100101010101110100101101100001010100100100100001011100010011110100001001010111010010010011110001010001010000110011101001010000010000100100001101011011010011000011111001011001010010100011011101010001010000100011011101010001010000100011011001010000010000010011011101010000010000010011100001001010 >+
b1111111111111111111111111111111111111111111111111111111111111111 h0
#41
b11011001010001010001000100000001011010010011010100011001011101 j"
b10100011101101011010111010010110101101001010011010001011101101001010000110000100101101111010001001110111101010101001010110000000101011011001100110010000101111001010100001000000011010110101011101011010100001100111001001010111100000100110111001001000011101000110000000111111011010100101011001000011011011100101101001000010011011100101101001010010100000100110110101011100100011110111101001011111100100010111110001011010100011000111011101011001100010110111011001011011100011010111100001010011100001010111000001001001 >+
#42
b110000001010011001101000100111101000010001101010101000001000010 j"
b11111111111111111111101011111111111111111111101011111111111111111111101011111111111111111111101011111111111111111111101011111111111111111111101011111111111111111111101011111111111111111111101011111111111111111111100111111111111111111111100111111111111111111111100111111111111111111111100111111111111111111111100111111111111111111111011111111111111111111111011111111111111111111111011011111111111111111111100011111100111111111111101111111100111111111111011111110110111000011101110111011010101100111011110110110111 >+
#43
b100111101000101010111000100111101010010011011010110000001000101 j"
b100011010000 i$
b11110100111011101110010111110000111010101110100011101110111010011111101011111101111110101111100111111100111110111101010011010110110101111111111011111110111111111111101011111010111111101111101111111010111111111111111011111011111111111111111111111001111111111111111111110111111111111111111111110111111111011111111111111010111111011111111111111011111111011111100111111000111110101110010011101011111011001111101111110111111110111111111111111001111111101111111111110111111111001111111111110111111111011111111111111001 >+
1J1
b11 K1
b10 k1
#44
b100001001010111010010100100011001011010010011100100010101011100 j"
b1 g$
b1 b%
b1100111101100011001011001101000101101101001110101101111101111111010011101110111110010001011001010000010110101001011111010011001111010011101001110011011111010001101010110000010110001011011010110000101110000011011000110010000110001001011010110000010101100101010001101100101100100101000010001111111101010011001110010000101101011001010001001010111011111100111010001100110100100011000011010010000101110101010111110001100101100001010100110001001101001101010000110100100101110011011011010110011110000111011111111100111 >+
0J1
b10 K1
b0 k1
#45
b101111001001111010001010101101001001110010000100101011001001010 j"
b101 S%
b1101100010110001000010001110010010101101000010001110010010100010111111001101100010001100111001101011111010000110111000101011010010000010110111101011000010000110111000101011010010001110111010001011011010011100111100001011110010001100111010001011001010001000111010001011001010001100111100001011111010011000111111001100100011100011010010110001101010111001001001101111010010110111001100001111110010110111001110110000011011000101010011110001100011001011010101010010000010111011010100010001101010101111010010010001000 >+
#46
b101101101001000011001110101011101001000011001000101011001000100 j"
b1011100010011000100101101111001011001010110001110011010100001000101110010011000100000100100110010001011011101100100011010001001011101000101110110100011100011110101011110100000100010110101000110011010100001010110111110110100101000100110101110100111100101110101010110001011011111000100011001110101011001110100010001101001010110110100000001011111010100010100100001100010010101010100110001100111010110100100010101100101010101110101010101111001011010100101010101111010011010110101000101111001011010100101001001111100 >+
b1 N1
0R1
b0 w1
b0 %2
#47
b100101001110010010111110100101101110000010111100100100101101011 j"
#48
b111111101101010010101101000001001101110010110001000000001101101 j"
#49
b111100001010111100010010111010001001011011111010110100001001110 j"
#50
b110100110011101100010000101100110001101011110000101100010001101 j"
#51
b111111001101001010010010111101101100110011010111001111110001010 j"
#52
b110110101001000011101010110000101001000011101010110000001010000 j"
#53
b110000010001101011110010101111110001100011110000101010010000001 j"
#54
b1010001010001101010010000111010101100001010110111000100001110100 j"
#55
b1001000001101110101001111001000101101101101001101001000001110001 j"
#56
b1101011111100100110111101010110111000101101110000111110010100011 j"
#57
b1111011011110100111110101111011111110011111100011111100011110011 j"
#58
b1111110111111111111101111111101111111111111110011111100011111110 j"
b11 N1
1R1
b1 w1
b1 %2
#59
b1111111111111000111111101111111111110111111111111111111111110111 j"
b1000000010101110100101001000111010111110101000001000100011000000101000100111101010110010100101000110101010100010100001000111010 >+
b1111111111111111 h0
b111 N1
1S1
b111 %2
#60
b1111101011111111111111111111101011111111111111111111100011111110 j"
b110110001110010010111100110001001101110010110100110100001111000011001000110100001111110011010000110110010000010011011000111000010000110011100000111101010010100011111100111111010100010100010100111111010100110100011100111100010011110100001100111101010011010100001000110000010000100011011000101110010001000011100000110100010011010011111100101111010001100011100100110100010011010100000000000000000000000000000000000000000000000000000000000000000000000000000000000000000000000000000000000000000000000000000000000000 >+
b1111111111111111111111111111111111111111111111111111111111111111 h0
b0 N1
0Q1
0R1
0S1
b0 w1
b0 %2
