QuanNet_Alveo/.Xil/Vivado-4442-cad113/hw_ila_data_1/zip_work/waveform.vcd
$date
        2025-Jul-19 01:20:17
$end
$version
        Vivado v2020.2 (64-bit)
$end
$timescale
        1ps
$end
$scope module dut $end
$var reg 2 " SoC_i/system_ila_0/inst/net_slot_0_axi_ar_cnt [1:0] $end
$var reg 20 $ SoC_i/system_ila_0/inst/net_slot_0_axi_araddr [19:0] $end
$var reg 2 8 SoC_i/system_ila_0/inst/net_slot_0_axi_arburst [1:0] $end
$var reg 4 : SoC_i/system_ila_0/inst/net_slot_0_axi_arcache [3:0] $end
$var reg 8 > SoC_i/system_ila_0/inst/net_slot_0_axi_arlen [7:0] $end
$var reg 1 F SoC_i/system_ila_0/inst/net_slot_0_axi_arlock $end
$var reg 3 G SoC_i/system_ila_0/inst/net_slot_0_axi_arprot [2:0] $end
$var reg 4 J SoC_i/system_ila_0/inst/net_slot_0_axi_arqos [3:0] $end
$var reg 3 N SoC_i/system_ila_0/inst/net_slot_0_axi_arsize [2:0] $end
$var reg 2 Q SoC_i/system_ila_0/inst/net_slot_0_axi_aw_cnt [1:0] $end
$var reg 20 S SoC_i/system_ila_0/inst/net_slot_0_axi_awaddr [19:0] $end
$var reg 2 g SoC_i/system_ila_0/inst/net_slot_0_axi_awburst [1:0] $end
$var reg 4 i SoC_i/system_ila_0/inst/net_slot_0_axi_awcache [3:0] $end
$var reg 8 m SoC_i/system_ila_0/inst/net_slot_0_axi_awlen [7:0] $end
$var reg 1 u SoC_i/system_ila_0/inst/net_slot_0_axi_awlock $end
$var reg 3 v SoC_i/system_ila_0/inst/net_slot_0_axi_awprot [2:0] $end
$var reg 4 y SoC_i/system_ila_0/inst/net_slot_0_axi_awqos [3:0] $end
$var reg 3 } SoC_i/system_ila_0/inst/net_slot_0_axi_awsize [2:0] $end
$var reg 2 "" SoC_i/system_ila_0/inst/net_slot_0_axi_b_cnt [1:0] $end
$var reg 2 $" SoC_i/system_ila_0/inst/net_slot_0_axi_bresp [1:0] $end
$var reg 2 &" SoC_i/system_ila_0/inst/net_slot_0_axi_r_cnt [1:0] $end
$var reg 64 (" SoC_i/system_ila_0/inst/net_slot_0_axi_rdata [63:0] $end
$var reg 2 h" SoC_i/system_ila_0/inst/net_slot_0_axi_rresp [1:0] $end
$var reg 64 j" SoC_i/system_ila_0/inst/net_slot_0_axi_wdata [63:0] $end
$var reg 8 L# SoC_i/system_ila_0/inst/net_slot_0_axi_wstrb [7:0] $end
$var reg 2 T# SoC_i/system_ila_0/inst/net_slot_0_axi_aw_ctrl [1:0] $end
$var reg 1 V# SoC_i/system_ila_0/inst/net_slot_0_axi_awvalid $end
$var reg 1 W# SoC_i/system_ila_0/inst/net_slot_0_axi_awready $end
$var reg 3 X# SoC_i/system_ila_0/inst/net_slot_0_axi_w_ctrl [2:0] $end
$var reg 1 [# SoC_i/system_ila_0/inst/net_slot_0_axi_wvalid $end
$var reg 1 \# SoC_i/system_ila_0/inst/net_slot_0_axi_wready $end
$var reg 1 ]# SoC_i/system_ila_0/inst/net_slot_0_axi_wlast $end
$var reg 1 ^# SoC_i/system_ila_0/inst/net_slot_0_axi_bvalid $end
$var reg 2 _# SoC_i/system_ila_0/inst/net_slot_0_axi_b_ctrl [1:0] $end
$var reg 1 a# SoC_i/system_ila_0/inst/net_slot_0_axi_bready $end
$var reg 1 b# SoC_i/system_ila_0/inst/net_slot_0_axi_arvalid $end
$var reg 2 c# SoC_i/system_ila_0/inst/net_slot_0_axi_ar_ctrl [1:0] $end
$var reg 1 e# SoC_i/system_ila_0/inst/net_slot_0_axi_arready $end
$var reg 3 f# SoC_i/system_ila_0/inst/net_slot_0_axi_r_ctrl [2:0] $end
$var reg 1 i# SoC_i/system_ila_0/inst/net_slot_0_axi_rvalid $end
$var reg 1 j# SoC_i/system_ila_0/inst/net_slot_0_axi_rready $end
$var reg 1 k# SoC_i/system_ila_0/inst/net_slot_0_axi_rlast $end
$var reg 2 l# SoC_i/system_ila_0/inst/net_slot_1_axi_ar_cnt [1:0] $end
$var reg 64 n# SoC_i/system_ila_0/inst/net_slot_1_axi_araddr [63:0] $end
$var reg 4 P$ SoC_i/system_ila_0/inst/net_slot_1_axi_arcache [3:0] $end
$var reg 4 T$ SoC_i/system_ila_0/inst/net_slot_1_axi_arid [3:0] $end
$var reg 8 X$ SoC_i/system_ila_0/inst/net_slot_1_axi_arlen [7:0] $end
$var reg 1 `$ SoC_i/system_ila_0/inst/net_slot_1_axi_arlock $end
$var reg 3 a$ SoC_i/system_ila_0/inst/net_slot_1_axi_arprot [2:0] $end
$var reg 3 d$ SoC_i/system_ila_0/inst/net_slot_1_axi_arsize [2:0] $end
$var reg 2 g$ SoC_i/system_ila_0/inst/net_slot_1_axi_aw_cnt [1:0] $end
$var reg 64 i$ SoC_i/system_ila_0/inst/net_slot_1_axi_awaddr [63:0] $end
$var reg 4 K% SoC_i/system_ila_0/inst/net_slot_1_axi_awcache [3:0] $end
$var reg 4 O% SoC_i/system_ila_0/inst/net_slot_1_axi_awid [3:0] $end
$var reg 8 S% SoC_i/system_ila_0/inst/net_slot_1_axi_awlen [7:0] $end
$var reg 1 [% SoC_i/system_ila_0/inst/net_slot_1_axi_awlock $end
$var reg 3 \% SoC_i/system_ila_0/inst/net_slot_1_axi_awprot [2:0] $end
$var reg 3 _% SoC_i/system_ila_0/inst/net_slot_1_axi_awsize [2:0] $end
$var reg 2 b% SoC_i/system_ila_0/inst/net_slot_1_axi_b_cnt [1:0] $end
$var reg 4 d% SoC_i/system_ila_0/inst/net_slot_1_axi_bid [3:0] $end
$var reg 2 h% SoC_i/system_ila_0/inst/net_slot_1_axi_bresp [1:0] $end
$var reg 2 j% SoC_i/system_ila_0/inst/net_slot_1_axi_r_cnt [1:0] $end
$var reg 512 l% SoC_i/system_ila_0/inst/net_slot_1_axi_rdata [511:0] $end
$var reg 4 8+ SoC_i/system_ila_0/inst/net_slot_1_axi_rid [3:0] $end
$var reg 2 <+ SoC_i/system_ila_0/inst/net_slot_1_axi_rresp [1:0] $end
$var reg 512 >+ SoC_i/system_ila_0/inst/net_slot_1_axi_wdata [511:0] $end
$var reg 64 h0 SoC_i/system_ila_0/inst/net_slot_1_axi_wstrb [63:0] $end
$var reg 1 J1 SoC_i/system_ila_0/inst/net_slot_1_axi_awvalid $end
$var reg 2 K1 SoC_i/system_ila_0/inst/net_slot_1_axi_aw_ctrl [1:0] $end
$var reg 1 M1 SoC_i/system_ila_0/inst/net_slot_1_axi_awready $end
$var reg 3 N1 SoC_i/system_ila_0/inst/net_slot_1_axi_w_ctrl [2:0] $end
$var reg 1 Q1 SoC_i/system_ila_0/inst/net_slot_1_axi_wvalid $end
$var reg 1 R1 SoC_i/system_ila_0/inst/net_slot_1_axi_wready $end
$var reg 1 S1 SoC_i/system_ila_0/inst/net_slot_1_axi_wlast $end
$var reg 1 T1 SoC_i/system_ila_0/inst/net_slot_1_axi_bvalid $end
$var reg 2 U1 SoC_i/system_ila_0/inst/net_slot_1_axi_b_ctrl [1:0] $end
$var reg 1 W1 SoC_i/system_ila_0/inst/net_slot_1_axi_bready $end
$var reg 2 X1 SoC_i/system_ila_0/inst/net_slot_1_axi_ar_ctrl [1:0] $end
$var reg 1 Z1 SoC_i/system_ila_0/inst/net_slot_1_axi_arvalid $end
$var reg 1 [1 SoC_i/system_ila_0/inst/net_slot_1_axi_arready $end
$var reg 3 \1 SoC_i/system_ila_0/inst/net_slot_1_axi_r_ctrl [2:0] $end
$var reg 1 _1 SoC_i/system_ila_0/inst/net_slot_1_axi_rvalid $end
$var reg 1 `1 SoC_i/system_ila_0/inst/net_slot_1_axi_rready $end
$var reg 1 a1 SoC_i/system_ila_0/inst/net_slot_1_axi_rlast $end
$var reg 3 b1 AR_Channel__i1_s0___axi_smc_M00_AXI_ [2:0] $end
$var reg 3 e1 AR_Channel__i1_s1___xdma_0_M_AXI_ [2:0] $end
$var reg 3 h1 AW_Channel__i1_s0___axi_smc_M00_AXI_ [2:0] $end
$var reg 3 k1 AW_Channel__i1_s1___xdma_0_M_AXI_ [2:0] $end
$var reg 3 n1 B_Channel__i1_s0___axi_smc_M00_AXI_ [2:0] $end
$var reg 3 q1 B_Channel__i1_s1___xdma_0_M_AXI_ [2:0] $end
$var reg 3 t1 Interface__i1_s0___axi_smc_M00_AXI_ [2:0] $end
$var reg 3 w1 Interface__i1_s1___xdma_0_M_AXI_ [2:0] $end
$var reg 3 z1 R_Channel__i1_s0___axi_smc_M00_AXI_ [2:0] $end
$var reg 3 }1 R_Channel__i1_s1___xdma_0_M_AXI_ [2:0] $end
$var reg 3 "2 W_Channel__i1_s0___axi_smc_M00_AXI_ [2:0] $end
$var reg 3 %2 W_Channel__i1_s1___xdma_0_M_AXI_ [2:0] $end
$var reg 16 (2 ila_1___slot_0___axi_smc_M00_AXI___Write_Transactions_0 [15:0] $end
$var reg 16 82 ila_1___slot_0___axi_smc_M00_AXI___Write_Transactions_1 [15:0] $end
$var reg 16 H2 ila_1___slot_1___xdma_0_M_AXI___Write_Transactions_0 [15:0] $end
$var reg 1 X2 _TRIGGER $end
$var reg 1 Y2 _WINDOW $end
$var reg 1 Z2 _GAP $end
$upscope $end
$enddefinitions $end
#0
$dumpvars
b0 "
b1100000100000000000 $
b1 8
b11 :
b11111111 >
0F
b0 G
b0 J
b11 N
b1 Q
b0 S
b1 g
b11 i
b11111 m
0u
b0 v
b0 y
b11 }
b1 ""
b0 $"
b0 &"
b0 ("
b0 h"
b110100001111000110010000110100001111010011000100000001000010 j"
b11111111 L#
b0 T#
0V#
0W#
b1 X#
1[#
0\#
0]#
0^#
b10 _#
1a#
0b#
b0 c#
0e#
b10 f#
0i#
1j#
0k#
b0 l#
b1100000011111100000 n#
b11 P$
b0 T$
b100000 X$
0`$
b0 a$
b110 d$
b1 g$
b0 i$
b11 K%
b0 O%
b1000 S%
0[%
b0 \%
b110 _%
b1 b%
b0 d%
b0 h%
b0 j%
b0 l%
b0 8+
b0 <+
b10111000101110000111000010101000101010000110000101010001010100010000100010100000101000000101100010011000100110000101000010101000101010000110100011001000110010001001000011000000101110001000100010100000100110000110100010011000100100000110000010011000100100000110000010010000100010000101100010010000100010000101100011100000110110001011000111001001110000011001000010110000100110000110100010101000011110000101000011000000100000000101100011100000101000000111100011111000110010001010000100011000111010001100000100010 >+
b1111111111111111111111111111111111111111111111111111111111111111 h0
0J1
b10 K1
1M1
b11 N1
1Q1
1R1
0S1
0T1
b10 U1
1W1
b10 X1
0Z1
1[1
b0 \1
0_1
0`1
0a1
b11 b1
b11 e1
b0 h1
b0 k1
b0 n1
b0 q1
b0 t1
b1 w1
b100 z1
b100 }1
b0 "2
b1 %2
b0 (2
b0 82
b0 H2
1X2
1Y2
0Z2
$end
#1
b11 X#
1\#
b10000010100000100111101010000010100000100111101110000001100000100111110101111101100000100111110101111100100000100111110101111100100000100111110101111100100000100111110101111100100000110111110001111100100001100111110001111100100001100111110001111100100001010111101101111010100000100111101101110100100000000111101001101110011011010110011101011011001000110001111000011000000110000001011100010111000101100001011000010110000111000001110000011010001000000010000100011100001000000010001000011011000111000001111000010111 >+
b111 N1
1S1
b1 t1
b1 "2
b111 %2
#2
b111100011001000011010000111100011001000011010000111100011001 j"
b10000101011011010110100010000010011010100110010101111111011001110110001001111110011001100110000101111111011001110110001001111111011001110110001010000000011010100110010010000001011011000110011010000100011011110110100110000111011100100110110010001011011101100111000010010000011110110111010110100001100011101000100011001000101110111011001011100011110110111101000111100111110111111101010111100110110111101101010011100011110111011101001111011110110110011101000011011011110110001101001011011000110101111101000111011000 >+
b0 N1
0Q1
0R1
0S1
b0 w1
b0 %2
#3
b1100100001101000011010001100100001100000011010001100100001101 j"
#4
b101000001010000101010000110000001100000110000000110000001100 j"
#5
b1000100011010000100100001001000010100000011000000110000010011 j"
#6
b1001100001001000010010001001100001010000010100001101100010001 j"
#7
b100100001001000100110000100100001001000100110000100100001001 j"
#8
b101000010001000010010000100100010001000010010000100100010011 j"
#9
b1010000001100000011000001001000001010000010100001001000001010 j"
#10
b1010000010001000110000001000000001111000101010000110100001101 j"
#11
b111100011010000100110001000000011011000101000001000100011011 j"
#12
b1111100011000000101010001101000010011000100000001100000010001 j"
#13
b1011000010100000111110001100000010101001000010001101000010111 j"
#14
b1101000010110000101000001000000010111000101010001000100011110 j"
#15
b10001000011100000101110001111000011001000101000010000000011110 j"
#16
b1110000010111000111010001011100010010001001000001110100011000 j"
#17
b111100011111000110010001010000100011000111010001100000100010 j"
#18
b1010100001111000010100001100000010000000010110001110000010100 j"
#19
b1101100010110001110010011100000110010000101100001001100001101 j"
#20
b110000010010000100010000101100010010000100010000101100011100 j"
#21
b1010000010011000011010001001100010010000011000001001100010010 j"
#22
b1010100001101000110010001100100010010000110000001011100010001 j"
b111 S%
#23
b10000100010100000101000000101100010011000100110000101000010101 j"
b100000000 i$
1J1
b11 K1
b10 k1
b1 w1
#24
b1011100010111000011100001010100010101000011000010101000101010 j"
b10 g$
b10 b%
0J1
b10 K1
b0 k1
b0 w1
#25
b10000100011100001000000010001000011011000111000001111000010111 j"
b1000 S%
b10 N1
1R1
#26
b100000000 S
b111111 m
b1011100010110000101100001011000011100000111000001101000100000 j"
b1 T#
1V#
b10 h1
b1 (2
#27
b110110101100111010110110010001100011110000110000001100000010111 j"
#28
b111101101111010100000100111101101110100100000000111101001101110 j"
#29
b111110010000110011111000111110010000110011111000111110010000101 j"
b1110111011011001000001101111000011011011000001001110111011011001000001001110111011011001000001001110111011010111000010001111010011010111000010001111011011010111000000001111101011010010111111101111101011010100111111001111011011101001000000101111100011111011000000101111010100000001000000101111001100000011000000101111001100000011000000101111001100000011000000101111001100000011000000101111001100000011000001001111010100000101000001001111010100000101000001001111010100000101000001001111010100000101000001001111010 >+
b11 N1
1Q1
b1 w1
b1 %2
#30
b1000001001111101011111001000001001111101011111001000001101111100 j"
b1110010011110000110111101101101011101010110101101101000011100100110101101101001011101010111001001101111011110000111100101110111011100010111010001110100011011000110010101110101011010100101111101110011011010000101110101110100011001110101110001110111011010010101111101111011011110100110110101111101011111000110111110000000011110100110111001111111011110010110110101111111011110010110110101111111011110010110110101111111011110010110110110000000011110010110110110000010011101110110110010000010011101110110110010000010 >+
#31
b111110101111101100000100111110101111100100000100111110101111100 j"
b1110011011100000111001101110011011100000111001101110001011011100111001101110000011010100111000001101011011001100110110001100111011000010110011101100010011011110111010101110000010111100110001101011110011011100111000101100111011011100111000101100111011011000110111101100110011100100111010101101011011010100110110101100011011010100110110101100011011011000110111001100101011100110111011001101100011010000110101101100001011010000110101101100001011001100110100101011111011001000110011101011101011010110110111001100100 >+
#32
b1000001010000010011110101000001010000010011110111000000110000010 j"
b111 X#
1]#
b1111100100000001000010101111100100000001000010001111011011111111000001101111010011111101000000101111000011111000111101101110010011101100111000101100111011011000111000101101000011011000111101101110010011101101000000101111000011111001000000001110110011111011000000101110100011111011000000001110010011111100111110001110011011110100111011001110001011101110110111001110001011100010110111101110010011100100111001101110111011101110110111101110010011100100110111001110001011100010111001101110110011101100111000001110011 >+
b111 "2
#33
b1000001001111010100000101000001001111010100000101000001001111010 j"
b1 X#
0\#
0]#
1^#
b11 _#
b111 S%
b10000001011111001000001010000001011110111000001110000001011110111000001110000001011110111000001110000001011110111000001110000001011110111000001110000001011110111000001110000001011110111000001110000001011110111000001110000001011110111000001110000001011110111000001110000001011110111000001110000011011110111000001110000101011110111000001010000101011111001000000010000101011111001000000010000101011111001000000010000101011111001000000010000101011111001000000010000101011111001000000010000101011111001000000010000101 >+
b10 n1
b0 "2
#34
b0 Q
b0 ""
b11 T#
1W#
0^#
b10 _#
b1100000000 i$
b1111100100000000111110101111100100000000111110101111100100000000111110101111100100000000111110101111100100000000111110101111100100000000111110101111100100000000111110101111100100000000111110101111100100000000111110101111100100000000111110101111100100000000111110101111100100000000111110101111100100000000111110101111100100000000111110101111100100000000111110101111100100000000111110101111100100000000111110101111100100000000111110101111100100000000111110101111100100000000111110101111100100000000111110101111110 >+
1J1
b11 K1
b10 k1
b0 n1
b1 H2
#35
b1 Q
b1 ""
b0 T#
0V#
0W#
b11 X#
1\#
b11 g$
b11 b%
b1111101011111001000000001111101011111001000000001111101011111001000000001111101011111001000000001111101011111001000000001111101011111001000000001111101011111001000000001111101011111001000000001111101011111001000000001111101011111001000000001111101011111001000000001111101011111001000000001111101011111001000000001111101011111001000000001111101011111001000000001111101011111001000000001111101011111001000000001111101011111001000000001111101011111001000000001111101011111001000000001111101011111001000000001111101 >+
0J1
b10 K1
1T1
b11 U1
b0 h1
b0 k1
b10 q1
b1 "2
#36
b111100110000001100000100111101010000010100000100111101010000010 j"
b10 g$
b1000 S%
b10 b%
b10000001011111100111110110000001011111100111110110000001011111100111110110000001011111100111110110000001011111100111110110000001011111100111110110000000011111010111110110000000011111010111110010000000011111010111110010000000011111010111110010000000011111010111110010000000011111010111110010000000011111010111110010000000011111010111110010000000011111010111110010000000011111010111110010000000011111010111110010000000011111010111110010000000011111010111110010000000011111010111110010000000011111010111110010000000 >+
b111 N1
1S1
0T1
b0 U1
0W1
b0 q1
b111 %2
#37
b1100000000 S
b1000000110000001011110011000000110000001011110011000000110000001 j"
b1 T#
1V#
b1110111011011001000001101111000011011011000001001110111011011001000001001110111011011001000001001110111011010111000010001111010011010111000010001111011011010111000000001111101011010010111111101111101011010100111111001111011011101001000000101111100011111011000000101111010100000001000000101111001100000011000000101111001100000011000000101111001100000011000000101111001100000011000000101111001100000011000001001111010100000101000001001111010100000101000001001111010100000101000001001111010100000101000001001111010 >+
b10 N1
0Q1
0S1
b10 U1
1W1
b10 h1
b0 w1
b0 %2
b1 82
#38
b1000000101111010100000001000000101111001100000011000000101111001 j"
#39
b111110101101010011111100111101101110100100000010111110001111101 j"
#40
b110101110000100011110110110101110000000011111010110100101111111 j"
b1111111100000000111110001111111100000000111110001111111100000010111111001111111100000010111111001111101100000010111111001111101100000010111111001111101100000010111111001111101100000010111111001111101100000010111111001111101100000010111111001111101100000010111111001111101100000010111111001111101100000010111111001111101100000010111111001111101100000010111111001111101100000010111111001111101100000010111111001111101100000010111111001111101100000010111111001111101100000010111111001111101100000010111111001111101 >+
b11 N1
1Q1
b1 w1
b1 %2
#41
b1000001001110111011011001000001001110111011010111000010001111010 j"
b1111000100010010010000010100000101010010111000100100001001000010101100100010001000100010101100100010000111100011111100110111001011010111010001101100011000100111111001110110011011001000000101111001011100001000001001111010011100001000000001111010011100000111110001111011011100000111101001111011011100000111101101111100011100010111110101111110011100110111111001111111011101000111111101111111011101010111111101111111011110001000000001111111011110011000000001111111011110011000000001111110011110111000000001111101 >+
#42
b111011101101100100000110111100001101101100000100111011101101100 j"
b11000000011000000110000010111000010110000101100010100000010100000101000010010000010100000101000010000000010110000101000010001000010110000101000010101000011000000101000010111000011100000101100010111000011100000101100011001000011010000101100011100000011010000101100011100000011010000101100011110000011100000110000011111000011100000111100011111000011110000111100011111000011110000111100011111000011110000111100011111000011110000111100100001000011100000111100100100000011100000111100100100000011100000111100100100 >+
#43
b110110110000010011101110110110010000010011101110110110010000010 j"
b111 S%
b1011001000110001100100011011000111010001000100010011000110000000100100001100000110000000100100001100000110000000100100001100001000010001001000010101001000110001010000010111001000100001001100010110001000000001000100010100000101100000011100001010000110000000100100001100000110000000100100001100000101110000100000001011000101100000011100001010000101010000011100001010000100110000100100001001000101000000101000001010000101100000110000001100000101000000101000001010000101010000101100001011000101100000110000001100 >+
#44
b111111101111001011011010111111101111001011011011000000001111001 j"
b10100000000 i$
b1000000010100001000000001000000010100001000000001000000010100001000000001000000010100000111100001000000010010000111000000110000001100000111000000110000001100001000000000110000001100001000100000110000001100001001000000110000001100001001100000111000001110001101000001100000011000001110100001110000011110001011000001000000010010001010000000101000001100001010000000101000001100001010000000110000001110001010000001000000010010001001100001001000010110001111000010100000101100010011000011101000111100001001100001001 >+
1J1
b11 K1
b10 k1
#45
b111101001101110011111110111100101101101011111110111100101101101 j"
b11 g$
b11 b%
b10010000011010000111000010010000011010000111000010000000010110000110000001111000010100000101100001101000010000000100100001100000001110000100000001100000001110000100000001100000001110000100000001111000010100000101100010101000100000001000100010000000010110000110000010000000010110000110000010001000010010000101100001110000001100000100000001110000001100000100000001110000001100000100000001110000001100000100000001110000001100000100000001111000001110000100100001111000001110000100100010000000010000000101000010000 >+
0J1
b10 K1
b0 k1
#46
b101111101111011011110100110110101111101011111000110111110000000 j"
b1000 S%
b110000100100000100100000110000100010000100000000101000011100000011100000101000011100000011100000101000011100000011100000101000011110000100000000101000100010000101000000111000100100000101100001000000100100000101000001010000100100000101000001010000100100000101100001010000100010000111000001100000100000001000000001110000100010001000100001111000100100000111100001110000011100000101100001010000011100000101100001010000011100000101100001010000011010000101000001001000011100000101100001010000100000000110100001100 >+
#47
b111001101101000010111010111010001100111010111000111011101101001 j"
b111000001110001010000001000000010000001010100001001000010010001010100001001000010010001010100001001000010010001010100001001000010010001010100001001000010010001010100001001000010010001010100001001000010010001011000001010000010100001100000001100000011000001100000001100000011000001100000001100000011000001100000001100000011000001011000001010000010100001011000001010000010100001011000001010000010100001011100001001000010000001011100001001000001110001011100001001000001110001010100001010000001110001001000001001 >+
b111 N1
1S1
b111 %2
#48
b111000101110100011101000110110001100101011101010110101001011111 j"
b1111111100000000111110001111111100000000111110001111111100000010111111001111111100000010111111001111101100000010111111001111101100000010111111001111101100000010111111001111101100000010111111001111101100000010111111001111101100000010111111001111101100000010111111001111101100000010111111001111101100000010111111001111101100000010111111001111101100000010111111001111101100000010111111001111101100000010111111001111101100000010111111001111101100000010111111001111101100000010111111001111101100000010111111001111101 >+
b10 N1
0Q1
0S1
b0 w1
b0 %2
#49
b110101101101001011101010111001001101111011110000111100101110111 j"
#50
b111001001111000011011110110110101110101011010110110100001110010 j"
b10101000010100000011100010101000010100000011100010100000010010000011000010100000010010000011000010100000010010000011000010011000010000000010100010100000010000000011100010011000001110000011100010010000001110000011100010011000001110000011100010100000010000000100000010100000010000000100000010100000010000000100000010101000010010000100100010100000010000000100000010100000010000000100000010101000010010000100100010101000010010000100100010110000010100000101000010101000010010000100100010100000010000000100000010011 >+
b11 N1
1Q1
b1 w1
b1 %2
#51
b110100101011111011001000110011101011101011010110110111001100100 j"
b1100000101110000111100001100000101110000111000001011000101110000110000001010000100110000100000000110000100110000100000000110000101000000100100000110000101010000101000000111000101010000101000000111000101000000100100000110000101000000100100000110000101000000100100000110000101000000100100000110000100110000100000000101000100100000011100000101000100100000011100000101000100110000100000000101000100110000100000000101000100110000100000000101000100110000100000000101000100110000100000000101000101000000100100000110 >+
#52
b110110001101000011010110110000101101000011010110110000101100110 j"
b10000000011010001011100001110000010110001011000001011000010000001011000001011000010000001010100001010000010000001001000001000000010000001000100000111000001110001000000000110000001100000111100000101000001010000111100000101000001010000111100000101000001010000111100000101000001010000111100000110000001000000111100000110000001000000111100000111000001000001000000000111000001010001000100001000000001010001001100001010000001110001011100001101000010110001100100010000000011010001100100010000000011010001100000001111 >+
#53
b110101001101101011000110110110001101110011001010111001101110110 j"
b10101000010010000100100010101000010010000100100010101000010010000100100010110000010100000101000011000000011000000110000011011000011110000111100011001000011110000111100010101000010110000101100011100000100100001001000011010000100000001000000011011000100010001000100011001000011110000111100010111000011010000110100010110000011010000101100010110000011010000101000010110000011010000101000010110000011010000101000010111000011100000101100011010000100010000111000011011000101000001000100011001000100100000111100011000 >+
#54
b110111101100110011100100111010101101011011010100110110101100011 j"
b10101001010100001110000011101001001110001100100011010001001110001011100011000001001000001010000010101001001100001011000010111001010010001101000011011001100010010000100100010001011100001111000011111001000110001010100010110001000100001010000010101001000100001010100010101001001000001100000011000001010010001110100011101001010110001111100011111001001010001100100011001001000010001010100010111001000010001010000010111001000010001010100010111001000110001011100011001001001000001100000011010010011100100001001000100 >+
#55
b101111001101110011100010110011101101110011100010110011101101100 j"
b101111001010100011001000101101001010000011011000110000001010110011010000101110001010000010111000100110001000100011101100110011001100000010111100100111001001000010111100100111001001000011001100100111001001000011010000101000001001010011010100101001001001100011010000100111001001010010111100100010001000000010101000011110000111000010110000100000000111010010111100100010001000000010111100100010001000000010101000011100000111000010010100010111000110000010001000010101000101010010000100010011000101000010001000010100 >+
#56
b110000101100111011000100110111101110101011100000101111001100011 j"
b110101001010110010001000110100001010100010001000110010001010000010000100100110000110110001010000101110001001000001110100111001001011110010100000111100001100010010110000110111001011000010011100110010001001110010001100110001001001100010001000110000001001010010000100101100001000010001110000101001000111110001101000101111001001000001111101001000001111010011100100100111000111100001100100100010000110010001001100100100000111000001011000101000001000000001101100110011001011010010100001000000001110100011010100110101 >+
#57
b111001101110000011010100111000001101011011001100110110001100111 j"
b11111111111111111111011111111111111111111111100011111110111111111111101011111010111111111111101011111001111111111111101011111001111111111111101011111001111111111111101011111001111111111111100111111001111111111111100111111001111111111111100111111001111111111111100111111000111111111111100111110010111110001111001011100110100010001000001001110110001111100011100100101001001110110011100000100011001110000011010100011111001111100011110000100111010010110100011100110101010010110100011100110111010000100011110000101111 >+
b111 N1
1S1
b111 %2
#58
b111001101110000011100110111001101110000011100110111000101101110 j"
b10101000010100000011100010101000010100000011100010100000010010000011000010100000010010000011000010100000010010000011000010011000010000000010100010100000010000000011100010011000001110000011100010010000001110000011100010011000001110000011100010100000010000000100000010100000010000000100000010100000010000000100000010101000010010000100100010100000010000000100000010100000010000000100000010101000010010000100100010101000010010000100100010110000010100000101000010101000010010000100100010100000010000000100000010011 >+
b0 N1
0Q1
0R1
0S1
b0 w1
b0 %2
#59
b110111001110001011100010111001101110110011101100111000001110011 j"
#60
b111001001110010011100110111011101110111011011110111001001110010 j"
#61
b111101001110110011100010111011101101110011100010111000101101111 j"
#62
b1000000101110100011111011000000001110010011111100111110001110011 j"
#63
b111001001110110100000010111100001111100100000000111011001111101 j"
#64
b111011001110001011001110110110001110001011010000110110001111011 j"
#65
b1000001101111010011111101000000101111000011111000111101101110010 j"
#66
b111110010000000100001010111110010000000100001000111101101111111 j"
#67
b1000000010000101011111001000000010000101011111001000000010000101 j"
#68
b1000010101111100100000001000010101111100100000001000010101111100 j"
#69
b111101110000010100001010111110010000000100001010111110010000000 j"
#70
b1000001110000001011110111000001110000011011110111000001110000101 j"
#71
b1000000101111011100000111000000101111011100000111000000101111011 j"
#72
b111101110000011100000010111101110000011100000010111101110000011 j"
#73
b1000001110000001011110111000001110000001011110111000001110000001 j"
#74
b1000000101111100100000101000000101111011100000111000000101111011 j"
#75
b111110101111100100000000111110101111100100000000111110101111110 j"
#76
b111110010000000011111010111110010000000011111010111110010000000 j"
#77
b1000000001111101011111001000000001111101011111001000000001111101 j"
#78
b111110101111100100000000111110101111100100000000111110101111100 j"
#79
b111110010000000011111010111110010000000011111010111110010000000 j"
#80
b1000000001111101011111001000000001111101011111001000000001111101 j"
#81
b111110101111100100000000111110101111100100000000111110101111100 j"
#82
b111110010000000011111010111110010000000011111010111110010000000 j"
#83
b1000000001111101011111001000000001111101011111001000000001111101 j"
b111 S%
#84
b111110101111100100000000111110101111100100000000111110101111100 j"
b11100000000 i$
1J1
b11 K1
b10 k1
b1 w1
#85
b111110010000000011111010111110010000000011111010111110010000000 j"
b0 g$
b0 b%
0J1
b10 K1
b0 k1
b0 w1
#86
b1000000001111101011111001000000001111101011111001000000001111101 j"
b1000 S%
b10 N1
1R1
#87
b111110101111100100000000111110101111100100000000111110101111100 j"
#88
b111110010000000011111010111110010000000011111010111110010000000 j"
#89
b1000000001111101011111001000000001111101011111001000000001111101 j"
#90
b111110101111100100000000111110101111100100000000111110101111100 j"
b11111110110100101111111111111110110100111111111011111110110100101111110111111110110100011111110111111110110100011111111011111111110100001111111111111111110100011111110011111111110101101111101111111011111000011111110011111001111100101111111011111001111110101111111011110111111111011111111011110110111111101111111011110110111111101111111011110110111111101111111011110110111111101111111011110110111111101111111111110111111111111111111111110111111111111111111111110111111111111111111111110111111111111111111111110111 >+
b11 N1
1Q1
b1 w1
b1 %2
#91
b111110010000000011111010111110010000000011111010111110010000000 j"
b11111100110111111011110011111100111000011011111011111011111001101100001011111100111010111100100011111101111010011100010011110111110100011010111011111001110011011010100111111010110011011010100011110110110001111010001011110001110010101010010011110101110111101011010111111111111110011100110111111111111111001101000011111101111111101101001011111010111111101101001011111010111111101101001011111010111111101101001011111010111111101101001011111011111111101101001011111101111111101101001011111110111111101101001011111110 >+
#92
b1000000001111101011111001000000001111101011111001000000001111101 j"
b11001110111111001110100011001101111111001110100011001010111111001110011011001001111110011101101010111101111011101100110110101111111101011101010010110111111111011110011111001001111110011101100010111011111100101100111110101101111101111101011110110101111111001101110110111100111111011110010011000010111111001110001011000000111110101101100110110111111110101101011010110101111110111101100110111000111010101100011110100101111011101100101110101001111101111101001110110010111110011101011010110100111110101101100010110110 >+
#93
b111110101111100100000000111110101111100100000000111110101111100 j"
b111 S%
b11110011111110001111111011110101111110011111101011110001111101011111000011100111111010111110100111100000111000111110100111100000111001001111010111101100111100001111101111110011111101111111111011110110111110101111111111111000111111011111111111111001111101111111111111111100111011101111111111111010111001011111111011110110110111111111111011110010110110111111111011101011110100001111111011101111110101001111111111110101110110101111110011101001110011101111100011100010110001111111110111101101110100101111110111101010 >+
#94
b111110010000000011111010111110010000000011111010111110010000000 j"
b100100000000 i$
b11111011111101101111110011111011111101011111110111111011111101011111110111111011111101011111110111111011111101011111110111111011111101011111110111111011111101011111110111111011111101011111110111111011111101011111110111111011111101011111110111111011111101011111110111111011111101011111110111111101111101011111110111111111111101101111110011111111111101101111101011111111111101101111101011111111111101101111101011111111111101101111101011111110111101011111100111111101111101001111100011111100111100111111011111111101 >+
1J1
b11 K1
b10 k1
